<svg xmlns="http://www.w3.org/2000/svg" width="48" height="48">
<defs>
  <path
     d="M 21.350877,2 C 18.033618,2 15.027448,2.968693 12.773879,4.6588694 10.52031,6.3490458 9,8.8344238 9,11.606238 l 0,24.701754 c 0,2.771814 1.52031,5.257192 3.773879,6.947369 1.83031,1.372731 4.189166,2.198878 6.775829,2.487329 C 20.446845,45.892987 21.320058,46 22.294347,46 l 3.602339,0 c 1.004308,0 1.994362,-0.09793 2.916179,-0.25731 0.467226,-0.05714 0.923961,-0.161083 1.37232,-0.25731 1.968785,-0.422523 3.773778,-1.136377 5.231969,-2.230019 2.253568,-1.690177 3.773879,-4.175555 3.773879,-6.947369 l 0,-24.701754 c 0,-2.7718142 -1.520311,-5.2571922 -3.773879,-6.9473686 C 33.163585,2.968693 30.157415,2 26.840156,2 l -5.489279,0 z m 0,2.7446394 1.45809,0 0,9.6062376 a 1.3724568,1.3724568 0 1 0 2.744639,0 l 0,-9.6062376 1.28655,0 c 2.764862,0 5.232188,0.8578645 6.947368,2.1442495 1.71518,1.286385 2.65887,2.9275723 2.65887,4.7173491 l 0,2.573099 c -0.472183,-1.349959 -1.673415,-2.315789 -3.259259,-2.315789 -1.997206,0 -3.68811,1.457716 -3.68811,3.345029 0,1.894152 -1.597896,3.430799 -3.602339,3.430799 l -3.602339,0 c -2.00444,0 -3.602339,-1.536647 -3.602339,-3.430799 0,-1.887313 -1.605133,-3.345029 -3.602339,-3.345029 -1.497905,0 -2.795526,0.831469 -3.34503,2.058479 l 0,-2.315789 c 0,-1.7897768 0.943691,-3.4309641 2.65887,-4.7173491 1.715179,-1.286385 4.182506,-2.1442495 6.947368,-2.1442495 z"
     id="path-main" />
</defs>
<acyl-settings>
<linearGradient
     id="linearGradient4321">
    <stop
       style="stop-color:#7B7B7B;stop-opacity:1.0;"
       offset="0.0"
       id="stop1" />
  </linearGradient>
<linearGradient
     inkscape:collect="always"
     xlink:href="#linearGradient4321"
     id="acyl_gradient"
     x1="50.0%"
     y1="0.0%"
     x2="50.0%"
     y2="100.0%" />
<filter id="filter1111" x="-50%" y="-50%" width="200%" height="200%">
	<feImage
	id="feImage2"
	xlink:href="#1"
	result="result1" />
	<feComposite
	id="feComposite3633"
	in="result1"
	in2="SourceAlpha"
	operator="out" />
</filter>
<defs>
<use id="1" transform="translate(22.5,22.5) scale(1) translate(-22.5,-22.5)" style="stroke-opacity:1;stroke:url(#acyl_gradient);stroke-width:4" xlink:href="#path-main" />
</defs>
<use id="2" transform="translate(22.5,22.5) scale(1) translate(-22.5,-22.5)" style="fill:url(#acyl_gradient);filter:url(#filter1111)" xlink:href="#path-main" />
</acyl-settings>
</svg>
