<svg xmlns="http://www.w3.org/2000/svg" width="48" height="48">
<defs>
  <path
     d="m 24.061281,2.0035613 a 1.3742641,1.3742641 0 0 0 -0.12499,0.031248 l -2.562293,0 c -3.321627,0 -6.336517,0.963633 -8.593054,2.656035 C 10.524408,6.3832457 9,8.8835654 9,11.65903 l 0,24.716749 c 0,2.775464 1.524408,5.275784 3.780944,6.968186 C 15.037481,45.036367 18.052371,46 21.373998,46 l 5.499555,0 c 3.321627,0 6.336518,-0.963633 8.593055,-2.656035 2.256536,-1.692402 3.749696,-4.192722 3.749696,-6.968186 l 0,-24.716749 c 0,-2.7754646 -1.49316,-5.2757843 -3.749696,-6.9681862 -2.256537,-1.692402 -5.271428,-2.656035 -8.593055,-2.656035 l -2.406055,0 a 1.3742641,1.3742641 0 0 0 -0.406217,-0.031248 z m -2.687283,2.7810249 1.468632,0 0,9.6242208 a 1.3742641,1.3742641 0 1 0 2.718529,0 l 0,-9.6242208 1.312394,0 c 2.768502,0 5.219501,0.836749 6.936939,2.124828 1.717439,1.2880789 2.687282,2.9574818 2.687282,4.7496158 l 0,22.248199 c -0.624477,-0.973557 -1.688358,-1.656116 -3.093499,-1.656116 l -18.560998,0 c -1.279811,0 -2.425929,0.668506 -3.0935,1.656116 l 0,-22.248199 c 0,-1.792134 0.938597,-3.4615369 2.656035,-4.7496158 1.717438,-1.288079 4.199683,-2.124828 6.968186,-2.124828 z"
     id="path-main" />
</defs>
<acyl-settings>
<linearGradient
     id="linearGradient4321">
    <stop
       style="stop-color:#7B7B7B;stop-opacity:1.0;"
       offset="0.0"
       id="stop1" />
  </linearGradient>
<linearGradient
     inkscape:collect="always"
     xlink:href="#linearGradient4321"
     id="acyl_gradient"
     x1="50.0%"
     y1="0.0%"
     x2="50.0%"
     y2="100.0%" />
<filter id="filter1111" x="-50%" y="-50%" width="200%" height="200%">
	<feImage
	id="feImage2"
	xlink:href="#1"
	result="result1" />
	<feComposite
	id="feComposite3633"
	in="result1"
	in2="SourceAlpha"
	operator="out" />
</filter>
<defs>
<use id="1" transform="translate(22.5,22.5) scale(1) translate(-22.5,-22.5)" style="stroke-opacity:1;stroke:url(#acyl_gradient);stroke-width:4" xlink:href="#path-main" />
</defs>
<use id="2" transform="translate(22.5,22.5) scale(1) translate(-22.5,-22.5)" style="fill:url(#acyl_gradient);filter:url(#filter1111)" xlink:href="#path-main" />
</acyl-settings>
</svg>
