<svg xmlns="http://www.w3.org/2000/svg" width="48" height="48">
<defs>
  <path
     d="m 3.09375,22.21875 c -0.1449376,0 -0.2809667,0.0097 -0.40625,0.0625 C 2.5679605,22.33613 2.4656103,22.472105 2.375,22.5625 L 2.3125,22.625 c -0.0674,0.07982 -0.1462791,0.152217 -0.1875,0.25 -0.2010803,0.382754 -0.1422719,0.858543 0.1875,1.1875 l 6,6 0,7.84375 c 0,0.57975 0.48275,1.0625 1.0625,1.0625 0.5797501,0 1.03125,-0.48275 1.03125,-1.0625 l 0,-7.84375 6.03125,-6 c 0.329772,-0.328957 0.388581,-0.804746 0.1875,-1.1875 -0.04122,-0.09778 -0.1201,-0.170185 -0.1875,-0.25 L 16.375,22.5625 c -0.190513,-0.190042 -0.464569,-0.330447 -0.71875,-0.34375 l -0.0625,0 -6.21875,0 -6.21875,0 -0.0625,0 z m 2.5625,2.09375 2.65625,0 0,2.625 -2.65625,-2.625 z m 4.75,0 2.6875,0 -2.6875,2.6875 0,-2.6875 z m 16.75,0 c -1.1595,0 -2.09375,0.93425 -2.09375,2.09375 l 0,10.46875 c 0,1.1595 0.93425,2.09375 2.09375,2.09375 1.1595,0 2.09375,-0.93425 2.09375,-2.09375 l 0,-10.46875 c 0,-1.1595 -0.93425,-2.09375 -2.09375,-2.09375 z m -8.375,8.375 c -1.1595,0 -2.09375,0.93425 -2.09375,2.09375 l 0,2.09375 c 0,1.1595 0.93425,2.09375 2.09375,2.09375 1.1595,0 2.09375,-0.93425 2.09375,-2.09375 l 0,-2.09375 c 0,-1.1595 -0.93425,-2.09375 -2.09375,-2.09375 z"
     id="path-main"
     sodipodi:nodetypes="csccscccscccsccccccccccccccccccsccccccsccc" />
</defs>
<acyl-settings>
<linearGradient
     id="linearGradient4321">
    <stop
       style="stop-color:#7B7B7B;stop-opacity:1.0;"
       offset="0.0"
       id="stop1" />
  </linearGradient>
<linearGradient
     inkscape:collect="always"
     xlink:href="#linearGradient4321"
     id="acyl_gradient"
     x1="50.0%"
     y1="0.0%"
     x2="50.0%"
     y2="100.0%" />
<filter id="filter1111" x="-50%" y="-50%" width="200%" height="200%">
	<feImage
	id="feImage2"
	xlink:href="#1"
	result="result1" />
	<feComposite
	id="feComposite3633"
	in="result1"
	in2="SourceAlpha"
	operator="out" />
</filter>
<defs>
<use id="1" transform="translate(22.5,22.5) scale(1) translate(-22.5,-22.5)" style="stroke-opacity:1;stroke:url(#acyl_gradient);stroke-width:4" xlink:href="#path-main" />
</defs>
<use id="2" transform="translate(22.5,22.5) scale(1) translate(-22.5,-22.5)" style="fill:url(#acyl_gradient);filter:url(#filter1111)" xlink:href="#path-main" />
</acyl-settings>
</svg>
