<svg xmlns="http://www.w3.org/2000/svg" width="48" height="48">
<defs>
<defs
     id="defs6602">
  </defs>
  <path
     id="path-main"
     d="m 11.334533,13.698137 c -0.150337,0.0104 -0.287976,0.03411 -0.435861,0.08718 -1.1352107,0.423311 -2.2664722,0.895149 -3.3706568,1.394755 -0.2837358,0.133908 -0.5028373,0.316766 -0.66832,0.581148 -0.1654827,0.264382 -0.2741245,0.663784 -0.087172,1.046066 1.658876,3.384852 3.3099028,6.785163 4.9688138,10.170087 0.289367,0.591698 0.990592,0.780328 1.540042,0.523033 0.717831,-0.335719 1.464093,-0.662611 2.208362,-0.929837 0.573104,-0.205193 0.938379,-0.833886 0.726434,-1.452869 -1.208917,-3.569675 -2.422212,-7.123426 -3.632173,-10.69312 l 0,-0.02906 c -0.135948,-0.397038 -0.48146,-0.595198 -0.78455,-0.66832 -0.151545,-0.03656 -0.314582,-0.03945 -0.464919,-0.02906 z M 8.1672828,29.214791 c -0.1060077,2.1e-5 -0.2185804,0.06629 -0.2905789,0.145287 l -5.7824207,6.421683 c -0.061999,0.06898 -0.087172,0.167518 -0.087172,0.261516 0,0.04503 -0.016,0.103289 0,0.145287 l 0.8426643,2.266477 C 2.9037843,38.603017 3.0404671,38.6875 3.198464,38.6875 l 41.581126,0 c 0.157988,2e-6 0.29569,-0.08447 0.348689,-0.232459 l 0.842664,-2.266477 c 0.01501,-0.042 0.02906,-0.100288 0.02906,-0.145287 0,-0.09397 -0.02517,-0.191518 -0.08717,-0.261516 l -5.811478,-6.421683 c -0.07101,-0.07898 -0.184576,-0.145287 -0.290574,-0.145287 l -31.6434982,0 z m 0.8426593,1.452866 20.3692309,3e-6 1.365697,3.196313 -24.4082078,-0.02906 2.6732799,-3.167256 z m 21.2990679,0 8.630045,3e-6 2.789509,3.196313 -9.90857,-0.02906 -1.510984,-3.167256 z"/>
</defs>
<acyl-settings>
<linearGradient
     id="linearGradient4321">
    <stop
       style="stop-color:#7B7B7B;stop-opacity:1.0;"
       offset="0.0"
       id="stop1" />
  </linearGradient>
<linearGradient
     inkscape:collect="always"
     xlink:href="#linearGradient4321"
     id="acyl_gradient"
     x1="50.0%"
     y1="0.0%"
     x2="50.0%"
     y2="100.0%" />
<filter id="filter1111" x="-50%" y="-50%" width="200%" height="200%">
	<feImage
	id="feImage2"
	xlink:href="#1"
	result="result1" />
	<feComposite
	id="feComposite3633"
	in="result1"
	in2="SourceAlpha"
	operator="out" />
</filter>
<defs>
<use id="1" transform="translate(22.5,22.5) scale(1) translate(-22.5,-22.5)" style="stroke-opacity:1;stroke:url(#acyl_gradient);stroke-width:4" xlink:href="#path-main" />
</defs>
<use id="2" transform="translate(22.5,22.5) scale(1) translate(-22.5,-22.5)" style="fill:url(#acyl_gradient);filter:url(#filter1111)" xlink:href="#path-main" />
</acyl-settings>
</svg>
