<svg xmlns="http://www.w3.org/2000/svg" width="48" height="48">
<defs>
<defs
     id="defs4910">
  </defs>
  <path
     id="path-main"
     d="m 26.695073,3.4742721 c -1.639401,0 -2.978096,1.2700788 -3.134487,2.8708389 -2.639601,0.3822224 -4.898405,1.8273534 -6.356858,3.925433 -0.552252,-0.232394 -1.102241,-0.5272972 -1.728362,-0.5272972 -0.128622,1e-7 -0.204633,0.045875 -0.322237,0.058589 -0.395237,-1.022762 -1.188964,-1.8455393 -2.343542,-1.8455393 -1.495598,1e-7 -2.724368,1.2287406 -2.724367,2.7243675 -10e-7,0.944792 0.546183,1.673155 1.288948,2.167776 -0.08841,0.251246 -0.191166,0.491378 -0.234354,0.761651 -0.347499,-0.09041 -0.646457,-0.292943 -1.0253,-0.292943 -1.413757,-10e-7 -2.5425012,0.764265 -3.3688416,1.786951 C 6.2785513,14.8379 5.7624122,14.664685 5.1930759,14.664685 3.4502362,14.664684 2,16.085875 2,17.828467 c 0,1.742591 1.4502363,3.193075 3.1930759,3.193075 0.5741517,0 1.0827773,-0.198296 1.5525965,-0.468708 0.8263406,1.022686 1.9550858,1.78695 3.3688416,1.786951 0.620489,0 1.196359,-0.152987 1.728362,-0.380826 0.946178,1.548533 2.591884,2.636485 4.540613,2.636485 1.266027,0 2.366823,-0.533243 3.280958,-1.259654 1.509337,1.022133 3.287724,1.699068 5.243676,1.699068 2.606666,0 4.879382,-1.188292 6.591211,-2.900133 0.94112,0.650635 2.01973,1.113182 3.251665,1.113182 1.436825,10e-7 2.676296,-0.607598 3.691078,-1.464713 0.527335,0.25523 1.040214,0.556591 1.669774,0.556591 0.892927,0 1.675004,-0.359573 2.343542,-0.849534 0.36683,0.250099 0.788527,0.41012 1.259654,0.41012 C 44.963405,21.900372 46,20.864082 46,19.615417 c 0,-1.135881 -0.897905,-2.004396 -1.992011,-2.167776 -0.399508,-1.826372 -1.95472,-3.22237 -3.896138,-3.22237 -0.189283,0 -0.345813,0.06255 -0.527297,0.08788 -0.642768,-0.994842 -1.560565,-1.737707 -2.665779,-2.197071 0.03446,-0.18994 0.117177,-0.351169 0.117177,-0.556591 0,-1.9895622 -1.64241,-3.6031959 -3.63249,-3.6031959 -0.83821,1e-7 -1.574495,0.3356917 -2.197071,0.8202396 -0.509457,-0.4641515 -1.042986,-0.8866294 -1.640479,-1.2303595 0.09493,-0.3078007 0.292943,-0.5765413 0.292943,-0.9081225 0,-1.7425939 -1.420945,-3.1637816 -3.163782,-3.1637816 z M 11.725699,27.290517 c -0.767576,0 -1.288472,0.351739 -1.8162449,0.761651 -0.5277729,0.409913 -1.050378,0.939091 -1.494008,1.43542 -0.8872601,0.992657 -1.5525966,1.962716 -1.5525966,1.962716 -0.2253757,0.270443 -0.2846414,0.642917 -0.1464713,0.966711 0.1381701,0.323794 0.4397503,0.532183 0.7909454,0.556591 0.3511948,0.02441 0.6971958,-0.137846 0.8788282,-0.439414 0,0 0.6393062,-0.925561 1.4354194,-1.816245 0.3980568,-0.445341 0.8488148,-0.875431 1.2303598,-1.171771 0.381544,-0.29634 0.69987,-0.380825 0.673768,-0.380825 -0.0261,0 0.120862,0.02199 0.380826,0.292942 0.259963,0.270954 0.579963,0.700936 0.908122,1.171771 0.328159,0.470836 0.666246,0.970827 1.083888,1.406126 0.417643,0.435298 0.99008,0.878828 1.757657,0.878828 0.767576,0 1.310718,-0.44353 1.728362,-0.878828 0.417643,-0.435299 0.755729,-0.93529 1.083888,-1.406126 0.328159,-0.470835 0.648158,-0.900817 0.908123,-1.171771 0.259964,-0.270953 0.406928,-0.292942 0.380825,-0.292942 -0.0261,0 0.120861,0.02199 0.380826,0.292942 0.259964,0.270954 0.579964,0.700936 0.908122,1.171771 0.328159,0.470836 0.666246,0.970827 1.083888,1.406126 0.417643,0.435298 0.960786,0.878828 1.728363,0.878828 0.767576,0 1.310719,-0.44353 1.728362,-0.878828 0.417642,-0.435299 0.785023,-0.93529 1.113182,-1.406126 0.328159,-0.470835 0.618864,-0.900817 0.878828,-1.171771 0.259965,-0.270953 0.406928,-0.292942 0.380826,-0.292942 -0.0261,0 0.120862,0.02199 0.380826,0.292942 0.259963,0.270954 0.579963,0.700936 0.908122,1.171771 0.328159,0.470836 0.666246,0.970827 1.083888,1.406126 0.417643,0.435298 0.99008,0.878828 1.757657,0.878828 0.767576,0 1.310718,-0.44353 1.728362,-0.878828 0.417643,-0.435299 0.755729,-0.93529 1.083888,-1.406126 0.328159,-0.470835 0.648159,-0.900817 0.908122,-1.171771 0.259964,-0.270953 0.406928,-0.292942 0.380826,-0.292942 -0.0261,0 0.292224,0.08449 0.673768,0.380825 0.381545,0.29634 0.832304,0.72643 1.23036,1.171771 0.796113,0.890684 1.435419,1.816245 1.435419,1.816245 0.181632,0.301568 0.527634,0.463822 0.878829,0.439414 0.351196,-0.02441 0.652774,-0.232797 0.790945,-0.556591 0.13817,-0.323794 0.0789,-0.696268 -0.146471,-0.966711 0,0 -0.665337,-0.970059 -1.552597,-1.962716 -0.44363,-0.496329 -0.936941,-1.025507 -1.464714,-1.43542 -0.527773,-0.409912 -1.077962,-0.761651 -1.845539,-0.761651 -0.767577,0 -1.31072,0.443529 -1.728362,0.878828 -0.417643,0.435299 -0.785024,0.93529 -1.113183,1.406126 -0.328158,0.470835 -0.618864,0.900817 -0.878828,1.17177 -0.259963,0.270954 -0.406927,0.292943 -0.380825,0.292943 0.0261,0 -0.120862,-0.02199 -0.380826,-0.292943 -0.259964,-0.270953 -0.579964,-0.700935 -0.908122,-1.17177 -0.328159,-0.470836 -0.666246,-0.970827 -1.083889,-1.406126 -0.417642,-0.435299 -0.99008,-0.878828 -1.757656,-0.878828 -0.767577,0 -1.31072,0.443529 -1.728362,0.878828 -0.417643,0.435299 -0.75573,0.93529 -1.083888,1.406126 -0.328159,0.470835 -0.648158,0.900817 -0.908123,1.17177 -0.259964,0.270954 -0.406928,0.292943 -0.380825,0.292943 0.0261,0 -0.120862,-0.02199 -0.380826,-0.292943 -0.259964,-0.270953 -0.579964,-0.700935 -0.908123,-1.17177 -0.328158,-0.470836 -0.666245,-0.970827 -1.083888,-1.406126 -0.417642,-0.435299 -0.960785,-0.878828 -1.728362,-0.878828 -0.767576,0 -1.310719,0.443529 -1.728362,0.878828 -0.417643,0.435299 -0.75573,0.93529 -1.083888,1.406126 -0.328159,0.470835 -0.648158,0.900817 -0.908123,1.17177 -0.259964,0.270954 -0.406927,0.292943 -0.380825,0.292943 0.0261,0 -0.120862,-0.02199 -0.380826,-0.292943 -0.259963,-0.270953 -0.579964,-0.700935 -0.908122,-1.17177 -0.328159,-0.470836 -0.666246,-0.970827 -1.083888,-1.406126 -0.417643,-0.435299 -0.99008,-0.878828 -1.757657,-0.878828 z m 0,5.155792 c -0.767576,0 -1.288472,0.381033 -1.8162449,0.790946 -0.5277729,0.409912 -1.050378,0.909796 -1.494008,1.406125 -0.88726,0.992658 -1.5525966,1.992011 -1.5525966,1.992011 -0.2546297,0.267965 -0.3163728,0.65414 -0.1757656,0.996005 0.1406071,0.341865 0.450761,0.574613 0.8202397,0.585885 0.3694786,0.01128 0.7176426,-0.194639 0.8788282,-0.527297 0,0 0.6393061,-0.896267 1.4354194,-1.78695 0.3980568,-0.445342 0.8488148,-0.875431 1.2303598,-1.171771 0.381544,-0.29634 0.69987,-0.41012 0.673768,-0.41012 -0.0261,0 0.120862,0.05129 0.380826,0.322237 0.259963,0.270954 0.579963,0.700936 0.908122,1.171771 0.328159,0.470835 0.666246,0.970826 1.083888,1.406125 0.417643,0.435299 0.99008,0.878828 1.757657,0.878828 0.767576,0 1.310718,-0.443529 1.728362,-0.878828 0.417643,-0.435299 0.755729,-0.93529 1.083888,-1.406125 0.328159,-0.470835 0.648158,-0.900817 0.908123,-1.171771 0.259964,-0.270954 0.406928,-0.322237 0.380825,-0.322237 -0.02611,0 0.120861,0.05129 0.380826,0.322237 0.259964,0.270954 0.579964,0.700936 0.908122,1.171771 0.328159,0.470835 0.666246,0.970826 1.083888,1.406125 0.417643,0.435299 0.960786,0.878828 1.728363,0.878828 0.767576,0 1.310719,-0.443529 1.728362,-0.878828 0.417642,-0.435299 0.785023,-0.93529 1.113182,-1.406125 0.328159,-0.470835 0.618864,-0.900817 0.878828,-1.171771 0.259965,-0.270954 0.406928,-0.322237 0.380826,-0.322237 -0.0261,0 0.120862,0.05129 0.380826,0.322237 0.259963,0.270954 0.579963,0.700936 0.908122,1.171771 0.328159,0.470835 0.666246,0.970826 1.083888,1.406125 0.417643,0.435299 0.99008,0.878828 1.757657,0.878828 0.767576,0 1.310718,-0.443529 1.728362,-0.878828 0.417643,-0.435299 0.755729,-0.93529 1.083888,-1.406125 0.328159,-0.470835 0.648159,-0.900817 0.908122,-1.171771 0.259964,-0.270954 0.406928,-0.322237 0.380826,-0.322237 -0.0261,0 0.292224,0.11378 0.673768,0.41012 0.381545,0.29634 0.832304,0.726429 1.23036,1.171771 0.796113,0.890683 1.435419,1.78695 1.435419,1.78695 0.161186,0.332658 0.50935,0.538569 0.878829,0.527297 0.369478,-0.01127 0.679632,-0.244021 0.820239,-0.585885 0.140608,-0.341864 0.07887,-0.72804 -0.175765,-0.996005 0,0 -0.665337,-0.999353 -1.552597,-1.992011 -0.44363,-0.496329 -0.936941,-0.996213 -1.464714,-1.406125 -0.527773,-0.409913 -1.077962,-0.790946 -1.845539,-0.790946 -0.767577,0 -1.31072,0.44353 -1.728362,0.878829 -0.417643,0.435298 -0.785024,0.935289 -1.113183,1.406125 -0.328158,0.470835 -0.618864,0.930111 -0.878828,1.201065 -0.259963,0.270954 -0.406927,0.292943 -0.380825,0.292943 0.0261,0 -0.120862,-0.02199 -0.380826,-0.292943 -0.259964,-0.270954 -0.579964,-0.73023 -0.908122,-1.201065 -0.328159,-0.470836 -0.666246,-0.970827 -1.083889,-1.406125 -0.417642,-0.435299 -0.99008,-0.878829 -1.757656,-0.878829 -0.767577,0 -1.31072,0.44353 -1.728362,0.878829 -0.417643,0.435298 -0.75573,0.935289 -1.083888,1.406125 -0.328159,0.470835 -0.648158,0.930111 -0.908123,1.201065 -0.259964,0.270954 -0.406929,0.292943 -0.380825,0.292943 0.0261,0 -0.120862,-0.02199 -0.380826,-0.292943 -0.259964,-0.270954 -0.579964,-0.73023 -0.908123,-1.201065 -0.328158,-0.470836 -0.666245,-0.970827 -1.083888,-1.406125 -0.417642,-0.435299 -0.960785,-0.878829 -1.728362,-0.878829 -0.767576,0 -1.310719,0.44353 -1.728362,0.878829 -0.417643,0.435298 -0.75573,0.935289 -1.083888,1.406125 -0.328159,0.470835 -0.648158,0.930111 -0.908123,1.201065 -0.259964,0.270954 -0.406927,0.292943 -0.380825,0.292943 0.0261,0 -0.120861,-0.02199 -0.380826,-0.292943 -0.259964,-0.270954 -0.579964,-0.73023 -0.908122,-1.201065 -0.328159,-0.470836 -0.666246,-0.970827 -1.083888,-1.406125 -0.417643,-0.435299 -0.99008,-0.878829 -1.757657,-0.878829 z m 0,5.126498 c -0.767576,0 -1.288472,0.381033 -1.8162449,0.790946 -0.5277729,0.409912 -1.050378,0.909797 -1.494008,1.406125 -0.88726,0.992658 -1.5525966,1.992011 -1.5525966,1.992011 -0.2546297,0.267965 -0.3163728,0.65414 -0.1757656,0.996005 0.1406071,0.341865 0.450761,0.574613 0.8202397,0.585885 0.3694786,0.01128 0.7176426,-0.194639 0.8788282,-0.527297 0,0 0.6393061,-0.896267 1.4354194,-1.78695 0.3980568,-0.445342 0.8488148,-0.875431 1.2303598,-1.171771 0.381544,-0.29634 0.69987,-0.41012 0.673768,-0.41012 -0.0261,0 0.120862,0.05129 0.380826,0.322237 0.259963,0.270954 0.579963,0.700936 0.908122,1.171771 0.328159,0.470835 0.666246,0.970826 1.083888,1.406125 0.417643,0.435299 0.99008,0.878828 1.757657,0.878828 0.767576,10e-7 1.310718,-0.443529 1.728362,-0.878828 0.417643,-0.435299 0.755729,-0.93529 1.083888,-1.406125 0.328159,-0.470835 0.648158,-0.900817 0.908123,-1.171771 0.259964,-0.270954 0.406928,-0.322237 0.380825,-0.322237 -0.0261,0 0.120861,0.05129 0.380826,0.322237 0.259964,0.270954 0.579964,0.700936 0.908122,1.171771 0.328159,0.470835 0.666246,0.970826 1.083888,1.406125 0.417643,0.435299 0.960786,0.878828 1.728363,0.878828 0.767576,10e-7 1.310719,-0.443529 1.728362,-0.878828 0.417642,-0.435299 0.785023,-0.93529 1.113182,-1.406125 0.328159,-0.470835 0.618864,-0.900817 0.878828,-1.171771 0.259965,-0.270954 0.406928,-0.322237 0.380826,-0.322237 -0.0261,0 0.120861,0.05129 0.380826,0.322237 0.259964,0.270954 0.579963,0.700936 0.908122,1.171771 0.328159,0.470835 0.666246,0.970826 1.083888,1.406125 0.417643,0.435299 0.99008,0.878828 1.757657,0.878828 0.767576,10e-7 1.310718,-0.443529 1.728362,-0.878828 0.417643,-0.435299 0.755729,-0.93529 1.083888,-1.406125 0.328159,-0.470835 0.648159,-0.900817 0.908122,-1.171771 0.259964,-0.270954 0.406928,-0.322237 0.380826,-0.322237 -0.0261,0 0.292224,0.11378 0.673768,0.41012 0.381545,0.29634 0.832304,0.726429 1.23036,1.171771 0.796113,0.890683 1.435419,1.78695 1.435419,1.78695 0.161186,0.332658 0.50935,0.538569 0.878829,0.527297 0.369478,-0.01127 0.679632,-0.244021 0.820239,-0.585885 0.140608,-0.341864 0.07887,-0.72804 -0.175765,-0.996005 0,0 -0.665337,-0.999353 -1.552597,-1.992011 -0.44363,-0.496328 -0.936941,-0.996213 -1.464714,-1.406125 -0.527773,-0.409913 -1.077962,-0.790946 -1.845539,-0.790946 -0.767577,0 -1.31072,0.44353 -1.728362,0.878829 -0.417643,0.435298 -0.785024,0.935289 -1.113183,1.406125 -0.328158,0.470835 -0.618864,0.930111 -0.878828,1.201065 -0.259963,0.270954 -0.406927,0.292943 -0.380825,0.292943 0.0261,0 -0.120862,-0.02199 -0.380826,-0.292943 -0.259964,-0.270954 -0.579964,-0.73023 -0.908122,-1.201065 -0.328159,-0.470836 -0.666246,-0.970827 -1.083889,-1.406125 -0.417642,-0.435299 -0.99008,-0.878829 -1.757656,-0.878829 -0.767577,0 -1.31072,0.44353 -1.728362,0.878829 -0.417643,0.435298 -0.75573,0.935289 -1.083888,1.406125 -0.328159,0.470835 -0.648158,0.930111 -0.908123,1.201065 -0.259964,0.270954 -0.406929,0.292943 -0.380825,0.292943 0.0261,0 -0.120862,-0.02199 -0.380826,-0.292943 -0.259964,-0.270954 -0.579964,-0.73023 -0.908123,-1.201065 -0.328158,-0.470836 -0.666245,-0.970827 -1.083888,-1.406125 -0.417642,-0.435299 -0.960785,-0.878829 -1.728362,-0.878829 -0.767576,0 -1.310719,0.44353 -1.728362,0.878829 -0.417643,0.435298 -0.75573,0.935289 -1.083888,1.406125 -0.328159,0.470835 -0.648158,0.930111 -0.908123,1.201065 -0.259964,0.270954 -0.406927,0.292943 -0.380825,0.292943 0.0261,0 -0.120862,-0.02199 -0.380826,-0.292943 -0.259963,-0.270954 -0.579964,-0.73023 -0.908122,-1.201065 -0.328159,-0.470836 -0.666246,-0.970827 -1.083888,-1.406125 -0.417643,-0.435299 -0.99008,-0.878829 -1.757657,-0.878829 z" />
</defs>
<acyl-settings>
<linearGradient
     id="linearGradient4321">
    <stop
       style="stop-color:#7B7B7B;stop-opacity:1.0;"
       offset="0.0"
       id="stop1" />
  </linearGradient>
<linearGradient
     inkscape:collect="always"
     xlink:href="#linearGradient4321"
     id="acyl_gradient"
     x1="50.0%"
     y1="0.0%"
     x2="50.0%"
     y2="100.0%" />
<filter id="filter1111" x="-50%" y="-50%" width="200%" height="200%">
	<feImage
	id="feImage2"
	xlink:href="#1"
	result="result1" />
	<feComposite
	id="feComposite3633"
	in="result1"
	in2="SourceAlpha"
	operator="out" />
</filter>
<defs>
<use id="1" transform="translate(22.5,22.5) scale(1) translate(-22.5,-22.5)" style="stroke-opacity:1;stroke:url(#acyl_gradient);stroke-width:4" xlink:href="#path-main" />
</defs>
<use id="2" transform="translate(22.5,22.5) scale(1) translate(-22.5,-22.5)" style="fill:url(#acyl_gradient);filter:url(#filter1111)" xlink:href="#path-main" />
</acyl-settings>
</svg>
