<svg xmlns="http://www.w3.org/2000/svg" width="48" height="48">
<defs>
<defs
     id="defs3306">
  </defs>
  <path
     id="path-main"
     d="M 15.737991,4.1916394 C 9.1518452,7.5478397 4.6259098,14.471057 4.6259098,22.444914 c 0,1.181237 0.097929,2.332266 0.2882096,3.458516 0.065503,0.0329 0.1284033,0.05992 0.1921397,0.09607 0.9041394,-1.117896 2.168319,-1.953421 3.7147016,-1.953421 0.4192017,0 0.7367443,0.219255 1.1208153,0.320233 0.04879,-0.304017 0.123115,-0.582753 0.224163,-0.864629 -0.7912855,-0.543961 -1.4090252,-1.320446 -1.4090249,-2.3377 0,-1.635517 1.3427079,-2.978165 2.9781659,-2.978166 1.262548,0 2.161415,0.899322 2.593887,2.017467 0.128625,-0.0139 0.211595,-0.06405 0.352256,-0.06405 0.450676,0 0.852839,0.15113 1.248908,0.320233 -1.115638,-2.534764 -1.729257,-5.339433 -1.729258,-8.294032 0,-2.8158345 0.517502,-5.5329 1.537118,-7.9737996 z M 26.946143,15.335744 c -0.799439,0 -1.441048,0.614774 -1.441048,1.409025 0,0.08575 0.006,0.201315 0.03202,0.320233 l 0.28821,1.184862 -1.216885,0.06405 c -2.898692,0.132626 -5.379737,1.716676 -6.756915,4.066958 l -0.576419,0.960699 -0.896652,-0.640466 c -0.460562,-0.322241 -1.071952,-0.512372 -1.697234,-0.512373 -0.193741,-1e-6 -0.415111,0.05356 -0.704513,0.128093 l -1.184861,0.28821 -0.57642,0.992722 c -0.256943,0.435292 -0.416302,0.946712 -0.416302,1.473071 0,0.0825 0.0017,0.212906 0.03202,0.416303 L 12.151377,27.664715 10.294026,26.5439 C 9.842795,26.272281 9.3518969,26.095571 8.8209607,26.09557 c -1.1784401,-2e-6 -2.1677658,0.696128 -2.6259098,1.697234 l -0.5443959,1.184862 0.5443959,1.184861 c 0.4581439,1.001106 1.447469,1.697233 2.6259098,1.697235 0.6239323,-1e-6 1.2069073,-0.189122 1.6972343,-0.544396 l 1.088792,-0.800583 0.448326,1.248909 c 0.550434,1.4811 1.948416,2.561862 3.618632,2.561863 1.097939,-1e-6 2.069689,-0.470081 2.786026,-1.216885 l 0.640466,-0.672489 0.736535,0.576419 c 1.417799,1.128577 3.196852,1.793303 5.15575,1.793304 2.563656,-10e-7 4.851189,-1.187665 6.372635,-3.010189 l 0.672489,-0.800582 0.800582,0.704512 c 0.781551,0.708895 1.782383,1.152838 2.914119,1.152839 1.230739,0 2.337174,-0.51975 3.138283,-1.344979 l 0.608442,-0.640465 0.736536,0.544396 c 0.408096,0.298471 0.883787,0.448325 1.409025,0.448326 0.749553,-1e-6 1.408835,-0.322373 1.85735,-0.864629 l 0.512373,-0.640466 0.03202,-0.832606 c -1.49e-4,0.0056 -2e-6,-0.01563 0,-0.06405 0,-1.334203 -1.061229,-2.369722 -2.401746,-2.369724 -0.237724,0 -0.47987,0.02769 -0.704513,0.09607 l -0.864629,0.256187 -0.352256,-0.800583 C 39.164473,25.46425 38.048391,24.576392 36.745266,24.270238 l -1.184861,-0.28821 0.480349,-1.120815 c 0.108397,-0.2556 0.160114,-0.493833 0.160116,-0.736535 0,-1.064225 -0.851416,-1.889373 -1.921397,-1.889375 -0.638413,0 -1.192605,0.280686 -1.537118,0.736536 l -0.736536,0.992722 -0.832605,-0.928675 c -0.72592,-0.81161 -1.645521,-1.47272 -2.657933,-1.953421 l -1.088792,-0.512373 0.704512,-0.992722 c 0.147733,-0.213407 0.224163,-0.524088 0.224163,-0.832605 0,-0.794251 -0.609586,-1.409025 -1.409024,-1.409025 z M 11.73508,20.235307 c -0.5289,0 -0.928675,0.404396 -0.928675,0.928676 0,0.457687 0.331318,0.83951 0.736535,0.928675 l 1.056769,0.224163 0.09607,-1.088792 c -0.0043,0.05479 0,0.03971 0,-0.06405 0,-0.524281 -0.431802,-0.928674 -0.960699,-0.928676 z M 3.4090247,27.568641 C 2.6095955,27.56864 2,28.183428 2,28.977666 c 0,0.794237 0.6095956,1.441049 1.4090247,1.441048 0.4379562,-1e-6 0.8278298,-0.184539 1.0887919,-0.48035 L 5.3304221,28.977666 4.4978166,28.04899 C 4.236854,27.75318 3.8469793,27.568642 3.4090247,27.568641 z M 45.551674,30.48276 c -0.01069,0 -0.05197,0.03763 -0.128093,0.06405 l -0.48035,0.160116 0.224163,0.448326 c 0.07697,0.141333 0.201932,0.224164 0.38428,0.224163 0.258348,0 0.448324,-0.194025 0.448326,-0.448326 0,-0.254307 -0.189979,-0.448325 -0.448326,-0.448326 z m -5.732169,2.81805 c -1.110289,0.936852 -2.495207,1.601163 -4.066958,1.601164 -1.341527,0 -2.527606,-0.479531 -3.554585,-1.184862 -1.872852,1.869506 -4.354921,3.138281 -7.20524,3.138283 -2.139905,0 -4.080744,-0.740115 -5.732169,-1.857351 -1.000139,0.793967 -2.201731,1.376999 -3.586608,1.377001 -2.135311,0 -3.961329,-1.184543 -4.995634,-2.882096 -0.580321,0.247363 -1.181086,0.416301 -1.8573503,0.416303 -0.2737855,0 -0.5128974,-0.04676 -0.768559,-0.09607 3.6154963,5.437659 9.7258893,9.030569 16.6841343,9.030568 6.939995,0 13.089652,-3.556557 16.716157,-8.966521 -0.597489,-0.05609 -1.11428,-0.325518 -1.633188,-0.576419 z" />
</defs>
<acyl-settings>
<linearGradient
     id="linearGradient4321">
    <stop
       style="stop-color:#7B7B7B;stop-opacity:1.0;"
       offset="0.0"
       id="stop1" />
  </linearGradient>
<linearGradient
     inkscape:collect="always"
     xlink:href="#linearGradient4321"
     id="acyl_gradient"
     x1="50.0%"
     y1="0.0%"
     x2="50.0%"
     y2="100.0%" />
<filter id="filter1111" x="-50%" y="-50%" width="200%" height="200%">
	<feImage
	id="feImage2"
	xlink:href="#1"
	result="result1" />
	<feComposite
	id="feComposite3633"
	in="result1"
	in2="SourceAlpha"
	operator="out" />
</filter>
<defs>
<use id="1" transform="translate(22.5,22.5) scale(1) translate(-22.5,-22.5)" style="stroke-opacity:1;stroke:url(#acyl_gradient);stroke-width:4" xlink:href="#path-main" />
</defs>
<use id="2" transform="translate(22.5,22.5) scale(1) translate(-22.5,-22.5)" style="fill:url(#acyl_gradient);filter:url(#filter1111)" xlink:href="#path-main" />
</acyl-settings>
</svg>
