<svg xmlns="http://www.w3.org/2000/svg" width="48" height="48">
<defs>
  <path
     d="M 20.751158,2.0380026 C 15.506236,2.9183585 10.73657,6.0364883 7.6471002,10.386555 c -3.0891314,4.350063 -4.3631599,9.945989 -3.48737,15.217614 0.2686045,1.616794 0.7246446,3.14704 1.3738125,4.649827 0.1459031,-0.09763 0.2740523,-0.223225 0.4227115,-0.317034 3e-7,-2.4564 1.3529436,-4.550286 3.0646584,-5.812283 1.7117154,-1.261997 3.8679654,-1.902202 6.1293174,-1.902202 0.991646,0 1.818659,0.486575 2.747625,0.739745 1.055588,-1.006743 2.290352,-1.845183 3.593048,-2.536269 -0.541592,-0.419384 -0.985797,-0.806066 -1.268135,-1.056778 -3.984555,-3.539151 5.773651,-18.2115317 0.52839,-17.3311724 z m 6.763384,20.2901524 c -3.808814,0 -7.036578,1.743719 -8.771264,4.332793 -0.976788,-0.609391 -2.224139,-0.951101 -3.593048,-0.951101 -3.111156,0 -5.7066054,1.893748 -5.7066054,4.227115 0,0.524038 0.18996,1.016277 0.422711,1.479491 -3.5383946,1.18576 -6.023639,3.870401 -6.023639,6.97474 C 3.8426966,42.606472 8.3674006,46 13.987773,46 l 20.290153,0 c 5.620372,0 10.145076,-3.393528 10.145076,-7.608807 0,-3.338867 -2.895526,-6.156428 -6.869062,-7.186096 0.0088,-0.144432 0.105678,-0.276453 0.105678,-0.422711 0,-4.666736 -4.544994,-8.454231 -10.145076,-8.454231 z"
     id="path-main" />
</defs>
<acyl-settings>
<linearGradient
     id="linearGradient4321">
    <stop
       style="stop-color:#7B7B7B;stop-opacity:1.0;"
       offset="0.0"
       id="stop1" />
  </linearGradient>
<linearGradient
     inkscape:collect="always"
     xlink:href="#linearGradient4321"
     id="acyl_gradient"
     x1="50.0%"
     y1="0.0%"
     x2="50.0%"
     y2="100.0%" />
<filter id="filter1111" x="-50%" y="-50%" width="200%" height="200%">
	<feImage
	id="feImage2"
	xlink:href="#1"
	result="result1" />
	<feComposite
	id="feComposite3633"
	in="result1"
	in2="SourceAlpha"
	operator="out" />
</filter>
<defs>
<use id="1" transform="translate(22.5,22.5) scale(1) translate(-22.5,-22.5)" style="stroke-opacity:1;stroke:url(#acyl_gradient);stroke-width:4" xlink:href="#path-main" />
</defs>
<use id="2" transform="translate(22.5,22.5) scale(1) translate(-22.5,-22.5)" style="fill:url(#acyl_gradient);filter:url(#filter1111)" xlink:href="#path-main" />
</acyl-settings>
</svg>
