<svg xmlns="http://www.w3.org/2000/svg" width="48" height="48">
<defs>
  <path
     d="M 3.90625,5.9197331 C 2.8469207,5.9197331 2,6.7666538 2,7.8259831 L 2,40.325983 c 0,0.794497 0.4694905,1.491739 1.15625,1.78125 0.00796,0.0035 0.02323,-0.0034 0.03125,0 0.1063069,0.0429 0.2288301,0.07035 0.34375,0.09375 0.1247004,0.02539 0.2738338,0.03125 0.40625,0.03125 l 34.3125,0 0.09375,0 c 0.140408,0.0016 0.271918,-0.0029 0.40625,-0.03125 0.07962,-0.01621 0.143122,-0.03679 0.21875,-0.0625 0.119028,-0.04047 0.236696,-0.09432 0.34375,-0.15625 0.204363,-0.118212 0.384098,-0.25469 0.53125,-0.4375 0.0094,-0.01173 0.02208,-0.01929 0.03125,-0.03125 0.02354,-0.03029 0.04071,-0.06189 0.0625,-0.09375 0.04413,-0.06542 0.08911,-0.147859 0.125,-0.21875 0.01987,-0.03986 0.04526,-0.08335 0.0625,-0.125 0.03489,-0.08276 0.03938,-0.1617 0.0625,-0.25 l 0.03125,-0.09375 c 0.0019,-0.0095 -0.0018,-0.02166 0,-0.03125 l 5.625,-20.625 0,-0.03125 c 0.0965,-0.22892 0.15625,-0.485168 0.15625,-0.75 0,-0.08858 -0.0197,-0.164684 -0.03125,-0.25 -0.01607,-0.118739 -0.05706,-0.233088 -0.09375,-0.34375 -0.0761,-0.229521 -0.161174,-0.443695 -0.3125,-0.625 -0.0092,-0.01101 -0.02182,-0.02046 -0.03125,-0.03125 -0.02831,-0.03256 -0.0632,-0.06309 -0.09375,-0.09375 -0.05601,-0.05601 -0.124873,-0.107536 -0.1875,-0.15625 -0.09967,-0.07753 -0.19834,-0.130719 -0.3125,-0.1875 -0.118395,-0.05889 -0.244057,-0.122715 -0.375,-0.15625 -0.03284,-0.0088 -0.06089,-0.02424 -0.09375,-0.03125 -0.1247,-0.02539 -0.242584,-0.03125 -0.375,-0.03125 l -32.53125,0 c -1.059329,0 -1.90625,0.846921 -1.90625,1.90625 0,1.059329 0.846921,1.90625 1.90625,1.90625 l 30,0 -4.6875,17.21875 -31.0625,0 0,-28.6874999 11.25,0 0,3.7187499 c 0,0.02111 -6.34e-4,0.04154 0,0.0625 -5.98e-4,0.01975 0,0.0426 0,0.0625 0,1.05933 0.87817,1.90625 1.9375,1.90625 0.03185,0.0015 0.06152,0 0.09375,0 l 17.34375,0 c 1.05933,0 1.90625,-0.84692 1.90625,-1.90625 0,-1.05933 -0.84692,-1.9375 -1.90625,-1.9375 l -15.3125,0 0,-3.6874999 c 0.0014,-0.021541 -7.24e-4,-0.040765 0,-0.0625 -6.57e-4,-0.021322 0.0013,-0.041353 0,-0.0625 0,-0.9597889 -0.705545,-1.7349594 -1.625,-1.875 -0.09183,-0.018697 -0.185274,-0.025334 -0.28125,-0.03125 l -15.28125,0 c -0.010088,-1.553e-4 -0.021124,0 -0.03125,0 z"
     id="path-main" />
</defs>
<acyl-settings>
<linearGradient
     id="linearGradient4321">
    <stop
       style="stop-color:#7B7B7B;stop-opacity:1.0;"
       offset="0.0"
       id="stop1" />
  </linearGradient>
<linearGradient
     inkscape:collect="always"
     xlink:href="#linearGradient4321"
     id="acyl_gradient"
     x1="50.0%"
     y1="0.0%"
     x2="50.0%"
     y2="100.0%" />
<filter id="filter1111" x="-50%" y="-50%" width="200%" height="200%">
	<feImage
	id="feImage2"
	xlink:href="#1"
	result="result1" />
	<feComposite
	id="feComposite3633"
	in="result1"
	in2="SourceAlpha"
	operator="out" />
</filter>
<defs>
<use id="1" transform="translate(22.5,22.5) scale(1) translate(-22.5,-22.5)" style="stroke-opacity:1;stroke:url(#acyl_gradient);stroke-width:4" xlink:href="#path-main" />
</defs>
<use id="2" transform="translate(22.5,22.5) scale(1) translate(-22.5,-22.5)" style="fill:url(#acyl_gradient);filter:url(#filter1111)" xlink:href="#path-main" />
</acyl-settings>
</svg>
