<svg xmlns="http://www.w3.org/2000/svg" width="48" height="48">
<defs>
  <path
     d="M 5.125 8 C 3.391658 8 2 9.304406 2 10.9375 L 2.125 37.0625 C 2.125 38.695593 3.51666 39.999996 5.25 40 L 42.875 40 C 44.608342 40 46.000002 38.695593 46 37.0625 L 46 16.25 C 46 14.616907 44.608338 13.28125 42.875 13.28125 L 26.1875 13.28125 L 24.9375 10.9375 C 24.220631 9.042752 23.15482 7.9345843 21.8125 8 L 5.125 8 z M 31.375 15.875 L 33.96875 18.5 L 31.375 20.78125 L 30.375 20.875 L 25.6875 25.65625 L 32.03125 32 C 32.501929 32.473105 32.501929 33.245646 32.03125 33.71875 L 31.09375 34.65625 C 30.623073 35.129354 29.876928 35.129353 29.40625 34.65625 L 23.0625 28.28125 L 22.15625 29.125 C 22.753627 30.059932 22.804154 31.165055 22.1875 31.78125 L 18.25 35.71875 C 17.495198 36.472997 16.03306 36.282299 15 35.25 L 14.625 34.84375 C 13.59194 33.811452 13.338948 32.379247 14.09375 31.625 L 18.09375 27.6875 C 18.736183 27.045545 19.850855 27.079455 20.8125 27.75 L 21.6875 26.875 L 19.28125 24.5 C 18.2155 25.26969 16.866892 25.059343 15.90625 24.09375 L 14.46875 22.65625 C 13.412134 21.59419 13.40555 19.889512 14.4375 18.8125 C 15.344803 19.783075 16.320344 20.704879 17.25 21.65625 L 18.34375 21.65625 L 19.09375 20.90625 L 19.09375 19.8125 L 16.28125 16.96875 C 17.35274 15.931486 19.068387 15.969185 20.125 17.03125 L 21.5 18.40625 C 22.460641 19.371844 22.671992 20.772507 21.90625 21.84375 L 24.28125 24.25 L 28.96875 19.53125 L 29.28125 18.3125 L 31.375 15.875 z "
     id="path-main" />
</defs>
<acyl-settings>
<linearGradient
     id="linearGradient4321">
    <stop
       style="stop-color:#7B7B7B;stop-opacity:1.0;"
       offset="0.0"
       id="stop1" />
  </linearGradient>
<linearGradient
     inkscape:collect="always"
     xlink:href="#linearGradient4321"
     id="acyl_gradient"
     x1="50.0%"
     y1="0.0%"
     x2="50.0%"
     y2="100.0%" />
<filter id="filter1111" x="-50%" y="-50%" width="200%" height="200%">
	<feImage
	id="feImage2"
	xlink:href="#1"
	result="result1" />
	<feComposite
	id="feComposite3633"
	in="result1"
	in2="SourceAlpha"
	operator="out" />
</filter>
<defs>
<use id="1" transform="translate(22.5,22.5) scale(1) translate(-22.5,-22.5)" style="stroke-opacity:1;stroke:url(#acyl_gradient);stroke-width:4" xlink:href="#path-main" />
</defs>
<use id="2" transform="translate(22.5,22.5) scale(1) translate(-22.5,-22.5)" style="fill:url(#acyl_gradient);filter:url(#filter1111)" xlink:href="#path-main" />
</acyl-settings>
</svg>
