<svg xmlns="http://www.w3.org/2000/svg" width="48" height="48">
<defs>
<defs
     id="defs7368" />
  <g
     id="layer1">
    <path
       d="M 24.0625,6.375 C 15.201469,6.375 8,13.576469 8,22.4375 C 8,23.499103 8.1143286,24.527258 8.3125,25.53125 C 8.1934846,26.111103 8.15625,26.69805 8.15625,27.3125 C 8.1562501,31.580316 11.175416,35.162151 15.1875,36.03125 C 14.736212,36.679911 14.5,37.396934 14.5,38.15625 C 14.5,41.063716 18.165391,43.406251 22.71875,43.40625 L 26.96875,43.40625 C 31.522109,43.40625 35.1875,41.063714 35.1875,38.15625 C 35.1875,37.058078 34.645651,36.056529 33.75,35.21875 C 37.612266,32.283345 40.125,27.655063 40.125,22.4375 C 40.125,13.576469 32.923531,6.375 24.0625,6.375 z M 24.0625,7.375 C 31.818552,7.375 38.20132,13.246658 39.03125,20.78125 C 35.68138,25.489383 29.152208,26.749657 25.96875,27.0625 C 25.834205,22.263397 21.893445,18.40625 17.0625,18.40625 C 14.36856,18.40625 11.949141,19.604529 10.3125,21.5 C 9.8964857,21.01556 9.531244,20.473519 9.21875,19.90625 C 10.426227,12.796726 16.608609,7.375 24.0625,7.375 z M 17.0625,19.59375 C 21.323903,19.593749 24.78125,23.051096 24.78125,27.3125 C 24.78125,31.573903 21.323903,35.03125 17.0625,35.03125 C 12.801097,35.03125 9.34375,31.573903 9.34375,27.3125 C 9.3437498,23.051096 12.801097,19.59375 17.0625,19.59375 z M 9.03125,21.5 C 9.2292342,21.783512 9.4518516,22.053585 9.6875,22.3125 C 9.4474197,22.663841 9.2512107,23.021467 9.0625,23.40625 C 9.0420156,23.085864 9,22.762628 9,22.4375 C 9,22.119231 9.0118059,21.813363 9.03125,21.5 z M 16.3125,22.28125 C 13.243642,22.281249 10.75,24.774892 10.75,27.84375 C 10.75,30.912608 13.243642,33.40625 16.3125,33.40625 C 19.381358,33.40625 21.875,30.912608 21.875,27.84375 C 21.875,24.774892 19.381358,22.28125 16.3125,22.28125 z M 39.125,22.28125 C 39.125545,22.334094 39.125,22.384527 39.125,22.4375 C 39.125,30.757469 32.382469,37.5 24.0625,37.5 C 21.873031,37.5 19.783742,37.027522 17.90625,36.1875 C 22.177459,35.782277 25.576327,32.346169 25.9375,28.0625 C 28.993073,27.786401 35.29977,26.715144 39.125,22.28125 z M 16.3125,23.0625 C 18.946965,23.0625 21.0625,25.209285 21.0625,27.84375 C 21.0625,30.478215 18.946965,32.59375 16.3125,32.59375 C 13.678035,32.59375 11.53125,30.478215 11.53125,27.84375 C 11.53125,25.209285 13.678035,23.0625 16.3125,23.0625 z M 16.28125,23.5625 C 13.897369,23.5625 11.9375,25.491119 11.9375,27.875 C 11.9375,30.25888 13.897369,32.21875 16.28125,32.21875 C 18.665131,32.21875 20.59375,30.258881 20.59375,27.875 C 20.593751,25.491118 18.665131,23.5625 16.28125,23.5625 z M 16.28125,24.34375 C 18.230738,24.34375 19.8125,25.925512 19.8125,27.875 C 19.8125,29.824487 18.230738,31.40625 16.28125,31.40625 C 14.331762,31.40625 12.71875,29.824488 12.71875,27.875 C 12.71875,25.925511 14.331762,24.34375 16.28125,24.34375 z M 16.21875,24.75 C 14.485598,24.750001 13.0625,26.173097 13.0625,27.90625 C 13.0625,29.639403 14.485597,31.0625 16.21875,31.0625 C 17.951903,31.062499 19.34375,29.639403 19.34375,27.90625 C 19.343749,26.173097 17.951902,24.75 16.21875,24.75 z M 16.21875,25.5625 C 17.51751,25.5625 18.5625,26.607491 18.5625,27.90625 C 18.5625,29.205009 17.517509,30.25 16.21875,30.25 C 14.919991,30.25 13.84375,29.205009 13.84375,27.90625 C 13.84375,26.607491 14.91999,25.5625 16.21875,25.5625 z M 16.1875,26.125 C 15.199425,26.125001 14.312501,26.934991 14.3125,27.96875 C 14.3125,29.002511 15.199426,29.781249 16.1875,29.78125 C 17.175575,29.781251 18.062499,29.00251 18.0625,27.96875 C 18.0625,26.934991 17.175574,26.125001 16.1875,26.125 z M 16.1875,27.59375 C 16.321743,27.593751 16.5,27.740031 16.5,27.96875 C 16.5,28.197469 16.321744,28.3125 16.1875,28.3125 C 16.053257,28.312501 15.84375,28.197469 15.84375,27.96875 C 15.84375,27.740032 16.053256,27.59375 16.1875,27.59375 z"
       id="path-main"
        />
  </g>
</defs>
<acyl-settings>
<linearGradient
     id="linearGradient4321">
    <stop
       style="stop-color:#7B7B7B;stop-opacity:1.0;"
       offset="0.0"
       id="stop1" />
  </linearGradient>
<linearGradient
     inkscape:collect="always"
     xlink:href="#linearGradient4321"
     id="acyl_gradient"
     x1="50.0%"
     y1="0.0%"
     x2="50.0%"
     y2="100.0%" />
<filter id="filter1111" x="-50%" y="-50%" width="200%" height="200%">
	<feImage
	id="feImage2"
	xlink:href="#1"
	result="result1" />
	<feComposite
	id="feComposite3633"
	in="result1"
	in2="SourceAlpha"
	operator="out" />
</filter>
<defs>
<use id="1" transform="translate(22.5,22.5) scale(1) translate(-22.5,-22.5)" style="stroke-opacity:1;stroke:url(#acyl_gradient);stroke-width:4" xlink:href="#path-main" />
</defs>
<use id="2" transform="translate(22.5,22.5) scale(1) translate(-22.5,-22.5)" style="fill:url(#acyl_gradient);filter:url(#filter1111)" xlink:href="#path-main" />
</acyl-settings>
</svg>
