<svg xmlns="http://www.w3.org/2000/svg" width="48" height="48">
<defs>
<defs
     id="defs4">
  </defs>
  <path
     id="path-main"
     d="m 17.055877,2 -1.013679,2.9776818 c -0.996223,-0.040527 -1.990559,0.060532 -2.914327,0.3484521 L 11.385611,2.7285817 C 10.095508,3.1371841 9.4701949,3.494527 8.4712839,4.4074874 l 1.362131,2.8192945 c -0.71123,0.6560454 -1.279246,1.4294364 -1.742261,2.312455 L 4.9867626,8.9690425 C 4.7685974,9.4777544 4.5956753,10.002701 4.4482457,10.552916 4.3008147,11.103132 4.196891,11.650506 4.131471,12.200144 l 2.9776818,1.013679 c -0.040527,0.996224 0.060532,1.990559 0.3484521,2.914327 l -2.5975522,1.74226 c 0.4086019,1.290101 0.7659453,1.915417 1.6789057,2.914327 l 2.8192945,-1.362131 c 0.6560461,0.71123 1.4294361,1.279246 2.3124551,1.742261 l -0.570194,3.104391 c 0.508711,0.218164 1.033658,0.391088 1.583873,0.538517 0.550214,0.147429 1.09759,0.251355 1.647228,0.316775 l 1.013679,-2.977682 c 0.996224,0.04053 1.990559,-0.06054 2.914327,-0.348452 l 1.74226,2.597552 c 1.290106,-0.408601 1.915417,-0.765945 2.914327,-1.678905 l -1.362131,-2.819295 c 0.711231,-0.656045 1.279246,-1.429436 1.742261,-2.312455 l 3.104392,0.570195 c 0.218165,-0.508711 0.391086,-1.033658 0.538517,-1.583874 0.14743,-0.550215 0.251354,-1.09759 0.316774,-1.647228 l -2.977682,-1.013679 c 0.04053,-0.996223 -0.06054,-1.990559 -0.348452,-2.914327 L 26.527439,9.2541397 C 26.18211,7.9991625 25.761495,7.3387231 24.848534,6.3398128 l -2.819295,1.362131 C 21.373193,6.9907142 20.599803,6.422698 19.716784,5.9596832 L 20.286979,2.8552916 C 19.778266,2.6371276 19.253321,2.4642043 18.703105,2.3167747 18.144941,2.1990163 17.605516,2.0654203 17.055877,2 z m -1.203744,9.028078 c 0.168044,0.01003 0.337939,0.04977 0.50684,0.09503 1.351214,0.362057 2.135994,1.753178 1.773938,3.104392 -0.362057,1.351215 -1.753177,2.135995 -3.104392,1.773938 -1.351213,-0.362057 -2.135994,-1.753177 -1.773938,-3.104392 0.3168,-1.182312 1.421249,-1.939387 2.597552,-1.868971 z m 18.182866,6.683945 -1.013679,2.977682 c -0.996222,-0.04053 -1.990559,0.06054 -2.914327,0.348452 l -1.742261,-2.597552 c -1.290104,0.408603 -1.915416,0.765945 -2.914326,1.678905 l 1.362131,2.819295 c -0.71123,0.656047 -1.279246,1.429436 -1.742261,2.312455 l -3.104392,-0.570194 c -0.218165,0.508711 -0.391087,1.033658 -0.538517,1.583873 -0.14743,0.550217 -0.251354,1.097589 -0.316774,1.647228 l 2.977682,1.013679 c -0.04053,0.996225 0.06054,1.990559 0.348452,2.914327 l -2.597552,1.74226 c 0.408602,1.290103 0.765944,1.915417 1.678905,2.914327 l 2.819295,-1.362131 c 0.656046,0.71123 1.429436,1.279246 2.312455,1.742261 l -0.570195,3.104391 c 0.508712,0.218165 1.03366,0.391088 1.583874,0.538517 0.550212,0.14743 1.097589,0.251355 1.647228,0.316775 l 1.013679,-2.977682 c 0.996225,0.04053 1.990559,-0.06053 2.914327,-0.348452 l 1.74226,2.597552 c 1.290105,-0.408602 1.915416,-0.765945 2.914327,-1.678905 l -1.362131,-2.819295 c 0.711229,-0.656045 1.279246,-1.429436 1.742261,-2.312455 l 3.104391,0.570195 c 0.218165,-0.508709 0.391087,-1.033657 0.538517,-1.583874 0.147429,-0.550213 0.251355,-1.097589 0.316775,-1.647228 L 41.257461,29.62275 c 0.04053,-0.996224 -0.06053,-1.990559 -0.348452,-2.914327 l 2.597552,-1.74226 c -0.345327,-1.254976 -0.765946,-1.915417 -1.678906,-2.914327 l -2.819294,1.362131 C 38.352315,22.702738 37.578925,22.134721 36.695906,21.671706 L 37.2661,18.567315 c -0.50871,-0.218163 -1.033657,-0.391088 -1.583873,-0.538517 -0.558162,-0.117757 -1.097588,-0.251355 -1.647228,-0.316775 z m -1.203744,9.028078 c 0.168044,0.01004 0.337937,0.04977 0.50684,0.09503 1.35121,0.362057 2.135993,1.753177 1.773938,3.104392 -0.362055,1.351215 -1.753177,2.135995 -3.104392,1.773938 -1.351212,-0.362057 -2.135995,-1.753177 -1.773938,-3.104392 0.316799,-1.182311 1.421249,-1.939386 2.597552,-1.86897 z M 12.557677,27.75378 c -0.495077,0.01904 -0.985301,0.09507 -1.457163,0.190064 l -0.03168,0 c -0.35424,0.07255 -0.707338,0.172747 -1.045356,0.285098 -0.4889361,0.162513 -0.9454771,0.362745 -1.3938091,0.601872 l 0.665227,3.167746 c -0.482758,0.357539 -0.936711,0.77565 -1.298776,1.267099 L 4.8600527,32.632109 C 4.6001481,33.12312 4.3625625,33.613712 4.194826,34.152628 3.9618146,34.901262 3.8144395,35.711089 3.7830189,36.528438 l 3.1043916,1.045356 c 0.07059,0.600572 0.2047358,1.196842 0.4434844,1.742261 l -2.1540675,2.407487 c 0.2814876,0.447354 0.5977915,0.876474 0.950324,1.267099 l 0.6335493,0.601872 c 0.3935314,0.360262 0.8149192,0.694475 1.2670982,0.982001 l 2.4074881,-2.154068 c 0.289391,0.129014 0.571264,0.232183 0.886969,0.316775 0.298747,0.08005 0.620303,0.15631 0.918646,0.190065 L 13.254581,46 c 0.495077,-0.01903 0.985301,-0.09507 1.457164,-0.190065 l 0.03168,0 c 0.35424,-0.07255 0.707338,-0.172746 1.045357,-0.285097 0.488935,-0.162513 0.945476,-0.362745 1.393808,-0.601872 L 16.51736,41.75522 c 0.482759,-0.357538 0.936712,-0.77565 1.298776,-1.267099 l 3.136069,0.633549 c 0.259905,-0.491011 0.497491,-0.981603 0.665227,-1.520518 0.233012,-0.748634 0.380386,-1.558461 0.411807,-2.37581 l -3.104391,-1.045356 c -0.07059,-0.600573 -0.204736,-1.196842 -0.443485,-1.742261 l 2.154068,-2.407487 c -0.281488,-0.447354 -0.597792,-0.876474 -0.950324,-1.267099 l -0.633549,-0.601872 c -0.393532,-0.360262 -0.814919,-0.694475 -1.267099,-0.982001 l -2.407488,2.154067 c -0.289392,-0.129014 -0.571263,-0.232182 -0.886969,-0.316774 -0.298747,-0.08005 -0.620303,-0.156311 -0.918646,-0.190065 L 12.557677,27.75378 z m 0.12671,7.095752 c 0.115062,-0.01284 0.230822,-0.007 0.348452,0 0.134434,0.008 0.276686,0.02715 0.411807,0.06335 1.080968,0.289641 1.715132,1.421549 1.425486,2.50252 -0.289645,1.080975 -1.421552,1.715129 -2.50252,1.425486 -1.080968,-0.289642 -1.71513,-1.421548 -1.425486,-2.50252 0.221761,-0.827618 0.936828,-1.398934 1.742261,-1.488841 z" />
</defs>
<acyl-settings>
<linearGradient
     id="linearGradient4321">
    <stop
       style="stop-color:#7B7B7B;stop-opacity:1.0;"
       offset="0.0"
       id="stop1" />
  </linearGradient>
<linearGradient
     inkscape:collect="always"
     xlink:href="#linearGradient4321"
     id="acyl_gradient"
     x1="50.0%"
     y1="0.0%"
     x2="50.0%"
     y2="100.0%" />
<filter id="filter1111" x="-50%" y="-50%" width="200%" height="200%">
	<feImage
	id="feImage2"
	xlink:href="#1"
	result="result1" />
	<feComposite
	id="feComposite3633"
	in="result1"
	in2="SourceAlpha"
	operator="out" />
</filter>
<defs>
<use id="1" transform="translate(22.5,22.5) scale(1) translate(-22.5,-22.5)" style="stroke-opacity:1;stroke:url(#acyl_gradient);stroke-width:4" xlink:href="#path-main" />
</defs>
<use id="2" transform="translate(22.5,22.5) scale(1) translate(-22.5,-22.5)" style="fill:url(#acyl_gradient);filter:url(#filter1111)" xlink:href="#path-main" />
</acyl-settings>
</svg>
