<svg xmlns="http://www.w3.org/2000/svg" width="48" height="48">
<defs>
<defs
     id="defs1308">
  </defs>
  <path
     d="m 21.643235,2 c -2.208436,3.1e-5 -4.145357,0.7154545 -5.610534,2.1954262 -1.465318,1.4652099 -2.225924,3.5425725 -2.225918,5.8544698 -7e-6,0.940862 0.135612,1.886969 0.45738,2.805267 0.165441,0.464696 0.4662,0.920754 0.701317,1.372141 -1.068135,1.042202 -1.983174,2.163785 -2.622315,3.384616 -0.832838,1.576755 -1.280668,3.305287 -1.280665,5.122661 -3e-6,2.965628 1.0017,5.626211 2.896743,7.562023 1.898606,1.925413 4.396497,2.896742 7.226611,2.896743 1.547169,-1e-6 3.043123,-0.295512 4.421345,-0.884269 l 0,-0.03049 c 0.971092,-0.424493 1.853007,-1.175431 2.744282,-1.890506 l 1.555094,1.79903 0.396396,0.457381 0.579349,0 4.024948,0 3.262647,0 -2.286902,-2.652807 -3.720028,-4.329868 c 0.717005,-1.238558 1.433507,-2.497076 1.890506,-3.781012 0.601487,-1.689996 0.987681,-3.402782 1.128205,-5.153153 l 0.09148,-1.707554 -1.494109,0 -2.957727,0 -1.311158,0 -0.06098,1.49411 c -0.05816,1.251267 -0.235707,2.379822 -0.548856,3.476091 -0.13163,0.456244 -0.374444,0.87961 -0.548857,1.311157 l -6.76923,-7.897436 c -0.936308,-1.095348 -1.539109,-1.90386 -1.738046,-2.286902 -0.216029,-0.438682 -0.274432,-0.777098 -0.274428,-1.097713 -5e-6,-0.6790715 0.13192,-1.0030698 0.548856,-1.4026334 0.429322,-0.41255 0.954499,-0.6403133 1.829522,-0.6403326 0.556477,1.88e-5 1.217387,0.1028254 1.95149,0.3659043 0.737737,0.253856 1.548289,0.6626825 2.40887,1.1891892 l 2.042966,1.2196815 0,-2.5918228 0,-3.3236314 0,-1.036729 -0.823285,-0.3659044 C 26.549716,2.9638157 25.545922,2.6055225 24.57047,2.3659044 23.601294,2.1249928 22.627551,2.0000306 21.643235,2 z m -3.232156,16.862093 6.220375,7.196119 c -0.271425,0.172501 -0.542291,0.487145 -0.823285,0.609841 -0.723836,0.30618 -1.48462,0.457382 -2.347887,0.45738 -1.42798,2e-6 -2.447732,-0.433864 -3.323631,-1.341649 -0.876634,-0.908527 -1.250177,-1.876631 -1.250173,-3.262647 -4e-6,-0.81479 0.167033,-1.559488 0.518364,-2.317395 0.192092,-0.409813 0.670148,-0.893248 1.006237,-1.341649 z M 15.300892,36.24255 c -0.180678,0.02791 -0.338583,0.161974 -0.396396,0.335413 -0.05781,0.17344 -0.0059,0.357142 0.121968,0.487872 l 8.293832,8.781705 c 0.09262,0.105 0.22589,0.15246 0.365905,0.15246 0.140014,10e-7 0.273281,-0.04746 0.365904,-0.15246 l 8.293832,-8.781705 c 0.135494,-0.143072 0.171506,-0.368791 0.09148,-0.548856 -0.08003,-0.180065 -0.260388,-0.279128 -0.45738,-0.274429 l -16.587665,0 c -0.03042,-0.0028 -0.06105,-0.0028 -0.09148,0 z"
     id="path-main"
      />
</defs>
<acyl-settings>
<linearGradient
     id="linearGradient4321">
    <stop
       style="stop-color:#7B7B7B;stop-opacity:1.0;"
       offset="0.0"
       id="stop1" />
  </linearGradient>
<linearGradient
     inkscape:collect="always"
     xlink:href="#linearGradient4321"
     id="acyl_gradient"
     x1="50.0%"
     y1="0.0%"
     x2="50.0%"
     y2="100.0%" />
<filter id="filter1111" x="-50%" y="-50%" width="200%" height="200%">
	<feImage
	id="feImage2"
	xlink:href="#1"
	result="result1" />
	<feComposite
	id="feComposite3633"
	in="result1"
	in2="SourceAlpha"
	operator="out" />
</filter>
<defs>
<use id="1" transform="translate(22.5,22.5) scale(1) translate(-22.5,-22.5)" style="stroke-opacity:1;stroke:url(#acyl_gradient);stroke-width:4" xlink:href="#path-main" />
</defs>
<use id="2" transform="translate(22.5,22.5) scale(1) translate(-22.5,-22.5)" style="fill:url(#acyl_gradient);filter:url(#filter1111)" xlink:href="#path-main" />
</acyl-settings>
</svg>
