<svg xmlns="http://www.w3.org/2000/svg" width="48" height="48">
<defs>
  <path
     id="path-main"
     d="m 11.420213,9.5895106 c -2.3374492,0 -4.2420215,1.3048124 -4.2420215,2.9255324 l 31.5372345,0 c 0,-1.620719 -1.904574,-2.9255324 -4.242022,-2.9255324 l -23.053191,0 z M 7.8803191,13.275681 C 4.6150646,13.275681 2,15.534536 2,18.336851 L 2,36.09483 c 0,2.802315 2.6150646,5.061169 5.8803191,5.06117 l 32.2393619,0 C 43.384935,41.156 46,38.897145 46,36.09483 l 0,-17.757979 c 0,-2.802315 -2.615065,-5.06117 -5.880319,-5.06117 l -32.2393619,0 z m 17.6994679,3.101064 c 0.813887,0.0016 1.633911,0.109028 2.457447,0.321808 0.02068,0.0053 0.06709,-0.0055 0.08777,0 5.29026,1.402712 8.423985,6.850702 7.021277,12.140958 -1.402705,5.29026 -6.821442,8.423985 -12.111703,7.021276 -1.091341,-0.289368 -2.095699,-0.750049 -2.984042,-1.345744 -0.02707,0.09074 -0.02832,0.170776 -0.05851,0.263297 -0.131261,0.402346 -0.31819,0.815691 -0.585106,1.170213 -0.266913,0.35452 -0.633846,0.635439 -1.140958,0.731383 -1.00075,0.189331 -1.808588,-0.385898 -2.486702,-0.93617 -0.678114,-0.550272 -1.290548,-1.048267 -1.813829,-1.111702 -0.637427,-0.07727 -0.944767,0.03352 -1.199469,0.204787 -0.254702,0.171267 -0.452073,0.450677 -0.877659,0.614362 L 11.59575,34.690574 c 0.139718,-0.05374 0.355554,-0.273885 0.731383,-0.526595 0.375827,-0.252712 0.928493,-0.476995 1.726063,-0.380319 0.911716,0.110511 1.57523,0.790511 2.223405,1.316489 0.648173,0.525976 1.234901,0.904957 1.843085,0.789894 0.297358,-0.05625 0.467529,-0.204948 0.643617,-0.43883 0.176086,-0.233883 0.320052,-0.572096 0.43883,-0.93617 0.05588,-0.171285 0.09589,-0.320588 0.146276,-0.497341 -2.950104,-2.38284 -4.36932,-6.368125 -3.335106,-10.268617 1.178912,-4.446218 5.1715,-7.380672 9.566489,-7.37234 z m -2.340425,1.579787 c -0.269828,0.01716 -0.553958,0.07294 -0.819149,0.175532 -1.39326,0.539005 -2.089537,2.11738 -1.550532,3.510638 0.539004,1.39326 2.117378,2.089536 3.510638,1.550532 1.393262,-0.539005 2.08954,-2.117375 1.550532,-3.510638 -0.330562,-0.854461 -1.074591,-1.433156 -1.901596,-1.638298 -0.0082,-0.002 -0.02102,0.002 -0.02925,0 -0.257349,-0.0613 -0.490812,-0.104926 -0.760638,-0.08777 z m 7.021276,1.81383 c -0.608806,-0.005 -1.217563,0.200381 -1.726064,0.614361 -1.15851,0.943167 -1.323482,2.644685 -0.380319,3.803192 0.943167,1.158505 2.644687,1.323487 3.803192,0.380319 1.15851,-0.943167 1.352743,-2.644684 0.409574,-3.803191 -0.386844,-0.475172 -0.938984,-0.801245 -1.492021,-0.936171 -0.197579,-0.04672 -0.411425,-0.05683 -0.614362,-0.05851 z m -10.853723,4.125 c -1.491633,0.08208 -2.627296,1.375394 -2.545213,2.867021 0.08208,1.491633 1.346138,2.656551 2.837766,2.574468 1.491633,-0.08209 2.627296,-1.375388 2.545213,-2.867021 -0.06605,-1.200295 -0.886568,-2.165072 -1.989362,-2.457447 -0.01675,-0.0045 -0.01241,-0.02514 -0.02925,-0.02926 -0.252643,-0.06177 -0.546022,-0.102792 -0.819149,-0.08777 z m 6.172872,1.316489 c -0.48462,-0.0064 -0.923359,0.300235 -1.053191,0.789894 -0.15315,0.577595 0.212292,1.192593 0.789893,1.345744 0.577595,0.153149 1.163343,-0.212299 1.31649,-0.789893 0.15315,-0.577599 -0.212297,-1.163337 -0.789894,-1.31649 -0.01579,-0.0042 -0.04271,-0.02579 -0.05851,-0.02925 -0.07001,-0.01482 -0.135548,9.1e-4 -0.204787,0 z m 4.856383,1.638298 c -0.822921,0.05661 -1.595708,0.483142 -2.077127,1.228723 -0.810353,1.255003 -0.435855,2.93433 0.819148,3.744681 1.255,0.810353 2.934327,0.465114 3.744681,-0.789893 0.810358,-1.255003 0.435856,-2.934328 -0.819149,-3.744681 -0.245114,-0.158273 -0.522229,-0.280084 -0.789893,-0.351064 -0.01723,-0.0045 -0.01198,-0.02504 -0.02926,-0.02926 -0.272195,-0.06645 -0.574096,-0.07737 -0.848404,-0.05851 z m -6.553191,2.545213 c -1.136363,0.06564 -2.179254,0.859088 -2.486702,2.018617 -0.382874,1.443992 0.486855,2.922974 1.930851,3.305851 1.443993,0.382874 2.922982,-0.457608 3.305851,-1.901596 0.382876,-1.443995 -0.486862,-2.952233 -1.930851,-3.335106 -0.01128,-0.003 -0.01795,0.0029 -0.02926,0 -0.267722,-0.06558 -0.527656,-0.102923 -0.789893,-0.08777 z" />
</defs>
<acyl-settings>
<linearGradient
     id="linearGradient4321">
    <stop
       style="stop-color:#7B7B7B;stop-opacity:1.0;"
       offset="0.0"
       id="stop1" />
  </linearGradient>
<linearGradient
     inkscape:collect="always"
     xlink:href="#linearGradient4321"
     id="acyl_gradient"
     x1="50.0%"
     y1="0.0%"
     x2="50.0%"
     y2="100.0%" />
<filter id="filter1111" x="-50%" y="-50%" width="200%" height="200%">
	<feImage
	id="feImage2"
	xlink:href="#1"
	result="result1" />
	<feComposite
	id="feComposite3633"
	in="result1"
	in2="SourceAlpha"
	operator="out" />
</filter>
<defs>
<use id="1" transform="translate(22.5,22.5) scale(1) translate(-22.5,-22.5)" style="stroke-opacity:1;stroke:url(#acyl_gradient);stroke-width:4" xlink:href="#path-main" />
</defs>
<use id="2" transform="translate(22.5,22.5) scale(1) translate(-22.5,-22.5)" style="fill:url(#acyl_gradient);filter:url(#filter1111)" xlink:href="#path-main" />
</acyl-settings>
</svg>
