<svg xmlns="http://www.w3.org/2000/svg" width="48" height="48">
<defs>
  <path
     d="M 24.563402,2.0095589 C 19.702791,1.8615902 14.825611,3.4374164 10.925007,6.3290125 11.917472,9.9872168 12.909938,13.645421 13.902404,17.303625 16.836771,12.654262 22.837571,11.02424 28.2053,12.45017 l 16.46353,4.373516 C 41.866284,8.3521818 33.541282,2.0709983 24.563402,2.0095589 z M 7.6641474,9.3517387 C 1.5128455,15.937178 0.17282306,26.664193 4.626006,34.489459 c 2.3310102,4.258933 6.090132,7.736636 10.556998,9.65877 2.667917,-2.666329 5.335835,-5.332659 8.003753,-7.998988 -5.931015,0.03608 -10.080828,-5.615449 -11.461866,-10.991114 L 7.6641474,9.3517387 z M 23.666982,15.831812 c -5.158586,-0.0011 -9.204558,5.723012 -7.534883,10.595408 1.329115,4.631947 7.137508,7.231207 11.447459,4.983378 4.367415,-2.046609 6.074832,-8.204079 3.117877,-12.094688 -1.57267,-2.228766 -4.298945,-3.597307 -7.030453,-3.484098 z m 11.205254,2.623668 c 2.52065,4.512394 0.746349,11.304588 -3.319083,15.229021 L 19.288224,45.524056 c 9.661879,2.152962 20.708195,-3.183782 24.710354,-12.260134 1.698232,-3.681283 2.350751,-7.843263 1.82279,-11.864814 -3.64971,-0.98121 -7.299422,-1.962419 -10.949132,-2.943628 z"
     id="path-main" />
</defs>
<acyl-settings>
<linearGradient
     id="linearGradient4321">
    <stop
       style="stop-color:#7B7B7B;stop-opacity:1.0;"
       offset="0.0"
       id="stop1" />
  </linearGradient>
<linearGradient
     inkscape:collect="always"
     xlink:href="#linearGradient4321"
     id="acyl_gradient"
     x1="50.0%"
     y1="0.0%"
     x2="50.0%"
     y2="100.0%" />
<filter id="filter1111" x="-50%" y="-50%" width="200%" height="200%">
	<feImage
	id="feImage2"
	xlink:href="#1"
	result="result1" />
	<feComposite
	id="feComposite3633"
	in="result1"
	in2="SourceAlpha"
	operator="out" />
</filter>
<defs>
<use id="1" transform="translate(22.5,22.5) scale(1) translate(-22.5,-22.5)" style="stroke-opacity:1;stroke:url(#acyl_gradient);stroke-width:4" xlink:href="#path-main" />
</defs>
<use id="2" transform="translate(22.5,22.5) scale(1) translate(-22.5,-22.5)" style="fill:url(#acyl_gradient);filter:url(#filter1111)" xlink:href="#path-main" />
</acyl-settings>
</svg>
