<svg xmlns="http://www.w3.org/2000/svg" width="48" height="48">
<defs>
<defs
     id="defs2385">
  </defs>
  <path
     id="path-main"
   d="M 7.1875 3.5625 L 4.9375 4.40625 L 5.875 21.125 L 7.8125 24.09375 L 26.28125 22.65625 L 26.375 3.8125 L 7.1875 3.5625 z M 28.625 3.9375 L 28.96875 22.34375 L 43.40625 21.15625 L 44.0625 4.25 L 28.625 3.9375 z M 10.59375 5.21875 C 13.29451 5.1863048 18.191136 5.9301683 21.21875 5.71875 C 13.474562 6.029508 10.475786 11.779346 9.21875 19.53125 C 9.21875 19.53125 7.7102763 6.5676753 8.78125 5.5625 C 9.0444655 5.3154559 9.6934968 5.2295651 10.59375 5.21875 z M 33.65625 5.5 C 35.160096 5.4922894 36.982975 5.5707299 38.53125 5.625 C 35.247909 5.7293322 31.415255 6.8236937 30.5625 11.03125 C 30.379507 9.7433274 30.169869 6.1839448 30.71875 5.78125 C 30.99319 5.5799027 32.152404 5.5077106 33.65625 5.5 z M 5.8125 23.1875 L 6.6875 37.71875 L 8.6875 44.78125 L 26.65625 41.21875 L 26.65625 24.8125 L 7.90625 26.375 L 5.8125 23.1875 z M 43.46875 23.4375 L 28.90625 24.78125 L 28.8125 40.96875 L 42.6875 38.5 L 43.46875 23.4375 z M 35.40625 25.84375 C 32.38615 26.803617 31.413041 27.168062 30.28125 30.46875 C 30.403341 28.977437 30.169869 26.933945 30.71875 26.53125 C 31.267631 26.128556 33.53004 25.9386 35.40625 25.84375 z M 18.96875 27.78125 C 15.482019 28.546598 11.384005 30.104944 10.53125 34.3125 C 10.55165 32.821187 10.013619 28.965195 10.5625 28.5625 C 11.111381 28.159806 15.617964 27.8761 18.96875 27.78125 z "
/>
</defs>
<acyl-settings>
<linearGradient
     id="linearGradient4321">
    <stop
       style="stop-color:#7B7B7B;stop-opacity:1.0;"
       offset="0.0"
       id="stop1" />
  </linearGradient>
<linearGradient
     inkscape:collect="always"
     xlink:href="#linearGradient4321"
     id="acyl_gradient"
     x1="50.0%"
     y1="0.0%"
     x2="50.0%"
     y2="100.0%" />
<filter id="filter1111" x="-50%" y="-50%" width="200%" height="200%">
	<feImage
	id="feImage2"
	xlink:href="#1"
	result="result1" />
	<feComposite
	id="feComposite3633"
	in="result1"
	in2="SourceAlpha"
	operator="out" />
</filter>
<defs>
<use id="1" transform="translate(22.5,22.5) scale(1) translate(-22.5,-22.5)" style="stroke-opacity:1;stroke:url(#acyl_gradient);stroke-width:4" xlink:href="#path-main" />
</defs>
<use id="2" transform="translate(22.5,22.5) scale(1) translate(-22.5,-22.5)" style="fill:url(#acyl_gradient);filter:url(#filter1111)" xlink:href="#path-main" />
</acyl-settings>
</svg>
