<svg xmlns="http://www.w3.org/2000/svg" width="48" height="48">
<defs>
  <path
     d="M 32.46875 3.625 L 23.625 11.0625 L 15.09375 4 L 2.46875 11.9375 L 10.71875 18.84375 L 2.34375 26.21875 L 10.875 31.625 L 10.75 36.1875 L 24.21875 43.90625 L 36.84375 35.78125 L 36.75 32.25 L 45.65625 26.34375 L 37.0625 19.03125 L 45.65625 11.5 L 32.46875 3.625 z M 21.5625 14.96875 L 26.5625 14.96875 L 26.5625 28.1875 L 21.5625 28.1875 L 21.5625 14.96875 z M 21.5625 31.1875 L 26.5625 31.1875 L 26.5625 36.1875 L 21.5625 36.1875 L 21.5625 31.1875 z "
     id="path-main" />
</defs>
<acyl-settings>
<linearGradient
     id="linearGradient4321">
    <stop
       style="stop-color:#7B7B7B;stop-opacity:1.0;"
       offset="0.0"
       id="stop1" />
  </linearGradient>
<linearGradient
     inkscape:collect="always"
     xlink:href="#linearGradient4321"
     id="acyl_gradient"
     x1="50.0%"
     y1="0.0%"
     x2="50.0%"
     y2="100.0%" />
<filter id="filter1111" x="-50%" y="-50%" width="200%" height="200%">
	<feImage
	id="feImage2"
	xlink:href="#1"
	result="result1" />
	<feComposite
	id="feComposite3633"
	in="result1"
	in2="SourceAlpha"
	operator="out" />
</filter>
<defs>
<use id="1" transform="translate(22.5,22.5) scale(1) translate(-22.5,-22.5)" style="stroke-opacity:1;stroke:url(#acyl_gradient);stroke-width:4" xlink:href="#path-main" />
</defs>
<use id="2" transform="translate(22.5,22.5) scale(1) translate(-22.5,-22.5)" style="fill:url(#acyl_gradient);filter:url(#filter1111)" xlink:href="#path-main" />
</acyl-settings>
</svg>
