<svg xmlns="http://www.w3.org/2000/svg" width="48" height="48">
<defs>
<defs
     id="defs7856">
  </defs>
  <path
     id="path-main"
     d="M 5.9817708,2 C 3.7380238,2 2,3.9310423 2,6.125 l 0,35.75 C 2,44.068957 3.7380239,46 5.9817708,46 L 42.018229,46 C 44.261976,46 46,44.068958 46,41.875 L 46,6.125 C 46,3.9310423 44.261976,2 42.018229,2 L 5.9817708,2 z m -0.3151041,7.791667 36.6666663,0 0,15.010416 c -0.737881,-0.293758 -1.646642,-0.458333 -2.75,-0.458333 l -22,0 0,-5.84375 -10.9999997,10.541667 10.9999997,10.541666 0,-5.786458 22.143229,0 c 1.079447,0 1.915803,0.309956 2.606771,0.744792 l 0,7.333333 c 0,0.354567 -0.176763,0.458333 -0.315104,0.458333 l -36.0364582,0 c -0.1383408,0 -0.3151041,-0.103768 -0.3151041,-0.458333 l 0,-32.083333 z" />
</defs>
<acyl-settings>
<linearGradient
     id="linearGradient4321">
    <stop
       style="stop-color:#7B7B7B;stop-opacity:1.0;"
       offset="0.0"
       id="stop1" />
  </linearGradient>
<linearGradient
     inkscape:collect="always"
     xlink:href="#linearGradient4321"
     id="acyl_gradient"
     x1="50.0%"
     y1="0.0%"
     x2="50.0%"
     y2="100.0%" />
<filter id="filter1111" x="-50%" y="-50%" width="200%" height="200%">
	<feImage
	id="feImage2"
	xlink:href="#1"
	result="result1" />
	<feComposite
	id="feComposite3633"
	in="result1"
	in2="SourceAlpha"
	operator="out" />
</filter>
<defs>
<use id="1" transform="translate(22.5,22.5) scale(1) translate(-22.5,-22.5)" style="stroke-opacity:1;stroke:url(#acyl_gradient);stroke-width:4" xlink:href="#path-main" />
</defs>
<use id="2" transform="translate(22.5,22.5) scale(1) translate(-22.5,-22.5)" style="fill:url(#acyl_gradient);filter:url(#filter1111)" xlink:href="#path-main" />
</acyl-settings>
</svg>
