<svg xmlns="http://www.w3.org/2000/svg" width="48" height="48">
<defs>
  <path
     d="M 10.84375 2.03125 L 7.71875 5.15625 C 7.686144 5.188886 7.659595 5.2445724 7.6875 5.28125 L 10.375 8.8125 C 10.027325 9.2642028 9.6849216 9.7073274 9.375 10.1875 C 9.3773 10.1905 10.512071 11.321553 10.9375 11.75 C 12.622327 9.024724 14.962491 6.7588995 17.78125 5.21875 L 16.21875 3.65625 C 16.21075 3.64818 16.19561 3.633069 16.1875 3.625 C 15.613963 3.9665382 15.067188 4.3561463 14.53125 4.75 C 13.209061 3.7460928 10.96875 2.03125 10.96875 2.03125 C 10.93204 2.003745 10.876353 1.998614 10.84375 2.03125 z M 27.78125 4.875 C 27.73303 4.87174 27.68655 4.899379 27.65625 4.9375 C 27.62568 4.974969 27.61166 5.015909 27.625 5.0625 C 27.725044 5.4101431 27.748695 5.6947968 27.71875 5.90625 C 27.493612 7.5112077 27.954057 8.0002128 28.375 8.125 C 28.39846 8.13184 28.41635 8.12633 28.4375 8.125 C 28.44825 8.3657756 28.527464 8.6104116 28.75 8.90625 C 28.69526 8.987378 28.609527 9.1840176 28.4375 9.4375 C 28.4306 9.415997 28.41335 9.394878 28.40625 9.375 C 28.39283 9.335898 28.35027 9.297867 28.3125 9.28125 C 27.980174 9.1356113 27.59375 8.8445811 27.59375 8.28125 C 27.59375 8.244763 27.62145 8.2262689 27.625 8.1875 C 27.625329 8.18327 27.625 8.160515 27.625 8.15625 C 27.625 8.12074 27.58559 8.08954 27.5625 8.0625 C 27.53613 8.0322 27.477571 8.002576 27.4375 8 C 27.40746 7.99805 27.39099 8.020528 27.375 8 C 27.36328 7.985336 27.34375 7.962293 27.34375 7.90625 C 27.34375 7.862265 27.35873 7.802481 27.375 7.71875 C 27.3768 7.71158 27.375 7.694342 27.375 7.6875 C 27.375 7.646446 27.37402 7.5924719 27.34375 7.5625 C 27.30889 7.527961 27.23601 7.521476 27.1875 7.53125 C 27.036326 7.584033 26.984503 7.6005526 26.46875 8 C 26.43285 8.027694 26.43781 8.0797091 26.4375 8.125 C 26.4375 8.4400622 26.507649 8.6612105 26.6875 8.9375 C 26.537954 8.984418 26.459653 9.0959466 26.40625 9.1875 C 26.33617 9.306746 26.309268 9.3148103 26.25 9.3125 C 26.19726 9.31055 26.15299 9.330366 26.125 9.375 C 26.0964 9.419637 26.10092 9.4843329 26.125 9.53125 C 26.18693 9.6508231 26.17771 9.8185501 26.1875 9.96875 C 26.20053 10.164565 26.234244 10.362125 26.375 10.5625 C 26.40039 10.59899 26.39316 10.62171 26.4375 10.625 C 26.622563 10.63901 26.748948 10.550851 26.84375 10.46875 C 26.89623 10.42215 26.931964 10.395221 26.96875 10.34375 C 26.92876 10.461043 26.9375 10.534751 26.9375 10.625 C 26.9375 10.68527 26.92444 10.756429 26.9375 10.84375 C 26.9444 10.88969 26.9593 10.946597 27 10.96875 C 27.04073 10.9909 27.113601 10.98796 27.15625 10.96875 C 27.294067 10.90685 27.410378 10.79923 27.53125 10.71875 C 27.44068 10.852008 27.34375 11.03125 27.34375 11.03125 C 27.32652 11.05666 27.3125 11.06477 27.3125 11.09375 C 27.3125 11.13024 27.31739 11.190727 27.34375 11.21875 C 27.692692 11.597019 27.894109 11.814994 28 11.9375 C 27.712307 12.00363 26.875 12.21875 26.875 12.21875 C 26.80623 12.23439 26.75 12.275658 26.75 12.34375 C 26.75 12.35315 26.7473 12.36555 26.75 12.375 C 26.79756 12.608283 26.82224 12.856232 26.84375 13.09375 C 26.88383 13.532946 26.926902 14.003843 27.125 14.4375 C 27.15791 14.50885 27.239548 14.49677 27.3125 14.46875 C 27.486106 14.402794 27.701314 14.455726 27.90625 14.46875 C 27.382998 15.400902 27.1875 15.762184 27.1875 15.96875 C 27.1875 16.03261 27.18849 16.068957 27.21875 16.125 C 26.596786 16.681491 26.497831 17.015182 26 18.59375 C 25.9952 18.60841 26 18.64159 26 18.65625 C 26 18.70382 26.02207 18.721646 26.0625 18.75 C 26.241414 18.875763 26.3125 18.937246 26.3125 19.21875 C 26.3125 19.3178 26.29981 19.456881 26.28125 19.625 C 26.27465 19.68527 26.28125 19.754832 26.28125 19.8125 C 26.28125 21.071445 27.785865 21.751406 28.46875 22 C 29.376781 22.330375 30.18942 21.99965 30.96875 21.6875 C 31.693344 21.396875 32.400699 21.14921 33.15625 21.375 C 33.156962 21.525526 33.1881 21.641477 33.21875 21.78125 C 33.24736 21.910598 33.28125 22.065971 33.28125 22.1875 C 33.28125 22.25363 33.27087 22.310817 33.25 22.375 C 33.2452 22.38999 33.21875 22.42219 33.21875 22.4375 C 33.21875 22.46226 33.23791 22.44693 33.25 22.46875 C 33.26982 22.50427 33.30429 22.55175 33.34375 22.5625 C 33.634694 22.63841 34.246791 22.797008 34.5625 23.375 C 34.699633 23.626856 34.78125 23.924484 34.78125 24.28125 C 34.78125 24.677764 34.670072 25.16685 34.5 25.6875 C 34.5 25.72888 34.53122 25.783817 34.5625 25.8125 C 35.442852 26.611721 35.425389 26.627425 35.46875 27.1875 C 35.47035 27.21097 35.48791 27.23011 35.5 27.25 L 36.625 29.09375 C 36.6641 29.15795 36.74408 29.18721 36.8125 29.15625 C 37.912107 28.656777 39.52986 27.883968 39.625 25.875 C 39.852083 25.738809 39.90242 25.629285 40.1875 24.84375 C 40.1941 24.82681 40.1875 24.83047 40.1875 24.8125 C 40.1875 24.78677 40.20082 24.74189 40.1875 24.71875 C 40.16535 24.68063 40.13738 24.66309 40.09375 24.65625 C 40.09375 24.65625 40.08077 24.65925 40.0625 24.65625 C 40.05175 24.556226 40.03125 24.465902 40.03125 24.375 C 40.03125 24.016279 40.150537 23.673699 40.71875 23.09375 C 40.74611 23.06605 40.75 23.03876 40.75 23 C 40.75 22.9955 40.750329 22.97329 40.75 22.96875 C 40.7109 22.51424 40.53855 22.094441 40.375 21.6875 C 40.191243 21.22843 40.03125 20.818134 40.03125 20.34375 C 40.03125 20.30335 40.02855 20.22855 40.03125 20.1875 C 40.06318 19.69715 40.175039 19.201607 40.28125 18.71875 C 40.410928 18.126095 40.53125 17.557523 40.53125 16.9375 C 40.53125 16.570633 40.496196 16.159195 40.375 15.78125 C 40.36103 15.73661 40.32524 15.73407 40.28125 15.71875 C 40.23659 15.70344 40.163475 15.69268 40.125 15.71875 C 39.950369 15.83637 39.889716 16.029807 39.8125 16.1875 C 39.71997 16.376473 39.64824 16.502546 39.5 16.5625 C 39.44266 16.49832 39.40625 16.434267 39.40625 16.40625 C 39.41405 16.34825 39.553293 16.253938 39.625 16.21875 C 39.918558 16.073437 40.3125 15.293552 40.3125 14.28125 C 40.3125 13.847917 40.24235 13.390084 40.0625 12.90625 C 40.04492 12.85965 39.985392 12.8239 39.9375 12.8125 C 39.88407 12.79979 39.868914 12.784469 39.375 12.46875 C 39.657477 12.335492 39.9375 12.1875 39.9375 12.1875 C 39.9766 12.16893 40.01986 12.13544 40.03125 12.09375 C 40.03475 12.08073 40.03125 12.07586 40.03125 12.0625 C 40.03125 12.03349 40.04822 11.99352 40.03125 11.96875 C 37.23614 7.8133645 32.765449 5.224598 27.78125 4.875 z M 25 4.9375 C 24.263668 5.011134 23.513673 5.1020524 22.78125 5.28125 C 22.76926 5.28418 22.76075 5.306635 22.75 5.3125 C 22.621299 5.380595 22.493268 5.4549815 22.375 5.5625 C 22.375 5.5634817 21.84375 6.1952521 21.84375 6.625 C 21.84375 6.658228 21.83665 6.688451 21.84375 6.71875 C 21.87534 6.8549404 21.961149 6.9465696 22.09375 7 C 22.284679 7.077218 22.567954 7.037143 22.625 7 L 22.75 6.875 L 22.78125 6.8125 C 23.244223 6.2749075 23.615171 6.0377915 23.6875 6 C 23.909696 5.99316 23.979744 5.8623046 24.4375 5.5 L 24.46875 5.5 C 24.601033 5.39574 24.767099 5.3200496 24.9375 5.25 L 25.09375 5.21875 C 25.14982 5.195292 25.1875 5.12082 25.1875 5.0625 C 25.1875 5.05012 25.1902 5.043631 25.1875 5.03125 C 25.16991 4.959571 25.073307 4.9300093 25 4.9375 z M 24.8125 5.53125 C 24.7633 5.5811 24.687883 5.6760117 24.65625 5.78125 C 24.59788 5.9708734 24.61955 6.1847242 24.5625 6.375 C 24.712695 6.279858 24.797756 6.2535543 24.90625 6.25 C 24.95708 6.24771 25.002849 6.256897 25.09375 6.1875 C 25.10025 6.18195 25.11967 6.163714 25.125 6.15625 C 25.1269 6.15365 25.255303 5.8064503 25.1875 5.65625 C 25.13571 5.54124 24.990721 5.5244079 24.8125 5.53125 z M 21.40625 5.71875 C 21.38973 5.7178472 21.36036 5.744295 21.34375 5.75 C 20.401838 6.0777689 19.465607 6.4972693 18.59375 7 C 18.56576 7.015968 18.54359 7.001597 18.53125 7.03125 L 18.46875 7.21875 C 18.45249 7.257198 18.45152 7.2743792 18.46875 7.3125 C 18.48601 7.350291 18.52305 7.393543 18.5625 7.40625 C 18.670336 7.441108 18.739193 7.445942 18.8125 7.4375 C 18.77144 7.5508832 18.75 7.6600755 18.75 7.75 C 18.7456 7.734098 18.73221 7.702165 18.71875 7.6875 C 18.6803 7.645478 18.617235 7.608384 18.5625 7.625 C 18.50125 7.64325 18.421944 7.687175 18.34375 7.6875 C 18.3259 7.645469 18.3125 7.59375 18.3125 7.59375 C 18.29295 7.548783 18.267002 7.5094458 18.21875 7.5 C 18.17053 7.49055 18.097332 7.49671 18.0625 7.53125 C 17.99441 7.598042 17.919368 7.6724815 17.84375 7.71875 C 17.80951 7.704089 17.75 7.6875 17.75 7.6875 C 17.70374 7.667302 17.63578 7.659154 17.59375 7.6875 L 17.46875 7.78125 C 17.43356 7.80471 17.41246 7.8645492 17.40625 7.90625 L 17.375 8 L 17.375 8.0625 C 17.374 8.06967 17.375 8.086553 17.375 8.09375 C 17.375 8.135125 17.40818 8.1910521 17.4375 8.21875 C 16.879388 8.7120314 16.448585 9.2862548 16.0625 9.875 C 15.828246 10.232418 15.5865 10.601913 15.3125 10.9375 C 15.35192 10.829655 15.4552 10.657536 15.6875 10.3125 C 15.70429 10.2874 15.71875 10.24743 15.71875 10.21875 C 15.71875 10.19007 15.70446 10.18102 15.6875 10.15625 C 15.60736 10.03635 15.510807 9.8767981 15.4375 9.6875 C 15.4193 9.640256 15.361731 9.604174 15.3125 9.59375 C 15.2633 9.583647 15.223044 9.589162 15.1875 9.625 C 13.086039 11.751912 11.607688 14.410153 10.9375 17.3125 C 10.92284 17.37603 10.9433 17.436166 11 17.46875 C 11.05669 17.50133 11.139607 17.51306 11.1875 17.46875 C 11.1875 17.46875 11.20018 17.45477 11.21875 17.4375 C 11.922817 17.745393 12.332897 17.893403 12.46875 18.0625 C 12.5091 18.11235 12.53125 18.177999 12.53125 18.25 C 12.53125 18.360777 12.486399 18.506944 12.40625 18.75 C 12.120183 18.82176 12.053076 18.883482 11.96875 19.21875 C 11.556836 18.966005 11.273695 19.337812 11.0625 19.59375 C 10.954663 19.724401 10.835063 19.843045 10.71875 19.90625 C 10.70276 19.90295 10.70447 19.90365 10.6875 19.90625 C 10.6158 19.91605 10.533917 19.95891 10.53125 20.03125 C 10.53125 20.03125 10.5 20.842151 10.5 20.84375 C 10.5 20.90924 10.561829 20.949849 10.625 20.96875 C 10.7159 20.99545 10.81766 21.02182 10.90625 21.03125 C 10.96652 21.37922 11.054834 21.588778 11.25 21.6875 C 11.374124 21.75005 11.541562 21.74743 11.65625 21.71875 C 11.803193 22.068674 12.187357 22.866714 12.71875 23.03125 C 12.878071 23.08044 13.033394 23.06386 13.1875 23 C 13.21719 23.100351 13.21875 23.213453 13.21875 23.3125 C 13.21875 23.555232 13.139358 23.781026 13.0625 24.03125 C 12.9817 24.29516 12.90625 24.588286 12.90625 24.875 L 12.90625 24.90625 C 12.91375 25.007904 13.002579 25.814658 13.40625 26.3125 C 14.962964 28.233497 14.942383 28.222819 15.3125 28.40625 C 15.677729 28.586426 15.938367 28.766448 16.0625 28.9375 C 16.07846 28.97497 17.280922 31.811522 17.28125 31.8125 C 17.704148 33.672244 19.592724 35.297147 20.75 35.71875 C 21.213621 35.887844 21.580193 35.866048 21.8125 35.6875 C 21.84929 35.65883 21.875 35.639363 21.875 35.59375 C 21.875 35.58625 21.875888 35.56997 21.875 35.5625 C 21.8662 35.50809 21.8327 35.455092 21.78125 35.4375 C 21.356726 35.28958 21.082617 34.98304 20.78125 34.65625 C 20.563284 34.419709 20.315032 34.183434 20.03125 34 C 20.04822 33.98274 20.09375 33.9375 20.09375 33.9375 C 20.12112 33.90947 20.125 33.9115 20.125 33.875 C 20.125 33.8694 20.125889 33.84996 20.125 33.84375 L 20.0625 33.375 C 20.0625 33.375 20.04493 33.219161 20.03125 33.125 C 20.265503 32.94026 20.429597 32.914691 20.53125 32.90625 C 20.57203 32.90305 20.631199 32.876 20.65625 32.84375 C 20.67775 32.81704 20.6875 32.78389 20.6875 32.75 C 20.6875 32.7435 20.688388 32.72559 20.6875 32.71875 C 20.65125 32.464615 20.625 32.437074 20.625 32.1875 L 20.625 32.15625 C 20.920503 31.982592 21.03641 31.696848 21.125 31.4375 C 21.2058 31.200635 21.272287 31.025497 21.46875 30.90625 C 21.51335 30.87921 21.53125 30.801801 21.53125 30.75 C 21.51729 30.607946 21.47597 30.471143 21.4375 30.34375 C 21.40036 30.221244 21.38478 30.116642 21.375 30 C 21.628803 29.842632 21.686186 29.827684 22.4375 29.59375 C 22.48378 29.57942 22.51657 29.515024 22.53125 29.46875 C 22.672 29.031509 22.78125 28.743496 22.78125 28.375 C 22.78125 28.181141 22.75459 27.929254 22.6875 27.6875 C 22.67027 27.62625 22.6875 27.585659 22.6875 27.53125 C 22.6875 27.280699 22.84489 27.115096 23.03125 26.90625 C 23.18699 26.73194 23.333566 26.545458 23.40625 26.3125 C 23.42872 26.24083 23.4375 26.169013 23.4375 26.09375 C 23.4375 25.850041 23.318559 25.585178 23.09375 25.34375 C 22.652282 24.869366 21.790063 24.477705 21.03125 24.65625 C 20.707731 24.73216 19.720819 24.233338 19.21875 23.9375 C 19.23074 23.90981 19.28125 23.8125 19.28125 23.8125 C 19.28955 23.79295 19.28125 23.73928 19.28125 23.71875 C 19.28125 23.69464 19.26137 23.70932 19.25 23.6875 C 18.954817 23.131988 18.442793 23.02938 17.96875 22.9375 C 17.658906 22.87723 17.351764 22.821764 17.125 22.65625 C 16.956882 22.534071 16.887762 22.361513 16.8125 22.15625 C 16.76852 22.036024 16.726268 21.867292 16.65625 21.75 C 16.61617 21.68288 16.538503 21.68355 16.46875 21.71875 C 15.918138 21.998299 15.521381 21.899915 14.90625 21.34375 C 14.85119 21.2939 14.775441 21.29552 14.71875 21.34375 C 14.463321 21.560417 14.409463 21.569882 13.71875 21.6875 C 13.64837 21.69956 13.594638 21.7724 13.59375 21.84375 C 13.58755 22.167283 13.582834 22.246601 13.40625 22.40625 C 13.267455 22.241744 13.137117 22.201158 12.6875 22.21875 C 12.578676 20.981637 12.527913 20.8307 11.875 20.5 C 11.89623 20.374235 11.93294 20.255977 11.96875 20.125 C 12.02428 19.920658 12.053436 19.692178 12.0625 19.46875 C 12.241396 19.663927 12.417438 19.721801 12.90625 19.65625 C 12.93722 19.768983 12.953698 19.875893 13 19.96875 C 12.97399 20.05607 12.9375 20.3125 12.9375 20.3125 C 12.9336 20.32619 12.90625 20.33006 12.90625 20.34375 C 12.90625 20.39132 12.92673 20.440077 12.96875 20.46875 C 13.208219 20.631003 13.311492 20.626822 13.71875 20.40625 C 13.963436 20.686772 14.127782 20.663797 15.40625 20.59375 C 15.927548 20.56508 15.93291 20.562931 16.34375 21.53125 C 16.36066 21.57133 16.39582 21.61195 16.4375 21.625 L 16.65625 21.6875 C 16.72369 21.70867 16.778646 21.68693 16.8125 21.625 L 16.90625 21.46875 C 16.93433 21.41727 16.91016 21.35909 16.875 21.3125 C 16.731638 21.121574 16.625402 20.916872 16.53125 20.6875 L 16.34375 20.1875 C 16.32351 20.14253 16.267271 20.13317 16.21875 20.125 C 16.13435 20.11067 16.013089 20.054414 15.96875 20 C 15.93975 19.96481 15.920941 19.93652 15.875 19.9375 C 15.101534 19.95509 15.086049 19.931821 14.21875 19 C 14.18389 18.96283 14.143949 18.9593 14.09375 18.96875 C 14.09375 18.96875 14.0531 18.96485 14.03125 18.96875 C 13.714573 18.250983 13.6875 18.134831 13.6875 18.0625 C 13.6875 18.04752 13.6848 18.01498 13.6875 18 C 13.6887 17.9905 13.6875 17.97819 13.6875 17.96875 C 13.6875 17.93421 13.64782 17.93296 13.625 17.90625 C 13.59564 17.87237 13.544601 17.84215 13.5 17.84375 L 13.46875 17.84375 L 13.34375 17.84375 C 13.090952 17.82029 13.041646 17.751654 13.03125 17.71875 C 13.02175 17.68976 13.03125 17.628614 13.03125 17.59375 C 13.03125 16.831672 15.161049 14.685259 15.625 14.28125 C 15.65823 14.25258 15.6875 14.230832 15.6875 14.1875 C 15.6875 14.1777 15.6893 14.1657 15.6875 14.15625 C 15.67613 14.10216 15.65625 14.066115 15.65625 14.03125 C 15.65625 13.98238 15.68223 13.918063 15.71875 13.8125 C 17.101474 13.66621 17.284068 13.633522 17.78125 12.84375 C 17.78875 12.83137 17.77775 12.82652 17.78125 12.8125 C 18.555373 12.919367 18.580988 12.901932 18.65625 13 C 18.68622 13.0391 18.732031 13.06544 18.78125 13.0625 C 18.83042 13.0595 18.881198 13.04235 18.90625 13 C 19.08479 12.698948 19.21875 12.461481 19.21875 12.21875 C 19.21875 12.01251 19.100109 11.791194 18.90625 11.59375 C 18.95969 11.453325 19.21875 10.75 19.21875 10.75 C 19.22535 10.73241 19.25 10.73731 19.25 10.71875 C 19.25 10.6816 19.24417 10.621111 19.21875 10.59375 C 18.999806 10.355904 18.875 10.238198 18.875 9.96875 C 18.875 9.7162439 18.976401 9.3450768 19.15625 8.59375 C 19.15835 8.58235 19.1875 8.542651 19.1875 8.53125 C 19.1875 8.489546 19.15689 8.4661747 19.125 8.4375 C 19.08427 8.40136 19.020198 8.388007 18.96875 8.40625 C 18.790538 8.470109 18.66871 8.6301009 18.5625 8.75 C 18.51558 8.802781 18.47855 8.8056292 18.4375 8.84375 C 18.661704 8.5195659 18.687473 8.4854788 18.71875 8.34375 C 18.72145 8.332998 18.71875 8.323252 18.71875 8.3125 C 18.71875 8.278943 18.70896 8.27639 18.6875 8.25 C 18.6875 8.25 18.6449 8.180686 18.625 8.15625 C 18.65888 8.073168 18.75 7.84375 18.75 7.84375 C 18.7579 7.901384 18.76753 7.9377906 18.78125 8 C 18.79131 8.045942 18.863237 8.1057791 18.90625 8.125 L 19.09375 8.21875 C 19.15044 8.244155 19.206638 8.232133 19.25 8.1875 C 19.473174 7.9597581 19.500811 7.9632423 19.6875 7.9375 C 19.7325 7.93131 19.789399 7.882849 19.8125 7.84375 C 20.160793 7.2523983 20.230029 7.1471903 21.46875 6 C 21.5202 5.95243 21.53617 5.8415226 21.5 5.78125 C 21.47289 5.736043 21.455831 5.721452 21.40625 5.71875 z M 29.40625 6.71875 C 29.45641 6.746767 29.526335 6.76952 29.5625 6.78125 C 29.5681 6.809267 29.5625 6.84375 29.5625 6.84375 C 29.58695 6.9587627 29.62239 7.0790042 29.65625 7.1875 C 29.64292 7.1878289 29.60804 7.18555 29.59375 7.1875 C 29.58565 7.100508 29.56842 7.0023934 29.5 6.875 C 29.47387 6.824824 29.43656 6.7663159 29.40625 6.71875 z M 25.625 6.8125 C 25.6175 6.848992 25.59902 6.896091 25.5625 6.96875 C 25.53584 7.024462 25.50443 7.0556298 25.5 7.09375 C 25.4931 7.155653 25.53709 7.177397 25.5625 7.1875 C 25.58009 7.101159 25.662717 7.0215599 25.6875 6.9375 C 25.70873 6.863542 25.67513 6.8317207 25.625 6.8125 z M 29.875 7.78125 C 29.90848 7.853483 29.937119 7.9367416 29.96875 8 C 29.850811 8.029648 29.787764 8.1206516 29.75 8.25 C 29.73694 8.294964 29.73112 8.3147552 29.6875 8.34375 C 29.68 8.325179 29.65625 8.295912 29.65625 8.28125 C 29.65625 8.248343 29.69139 8.2305069 29.71875 8.1875 C 29.77224 8.104744 29.8125 8.0231861 29.8125 7.9375 C 29.8125 7.907853 29.79014 7.876005 29.78125 7.84375 C 29.82064 7.8343 29.85482 7.817087 29.875 7.78125 z M 29.96875 12.0625 C 29.96875 12.09248 29.969639 12.1253 29.96875 12.15625 C 29.968102 12.18785 29.96875 12.217087 29.96875 12.25 C 29.96875 12.40574 29.997307 12.558124 30.09375 12.71875 C 30.267731 13.007748 30.469186 13.045236 30.71875 13.0625 C 30.163571 13.181097 29.702221 13.463611 29.25 13.75 C 29.18614 13.79073 29.126033 13.866818 29.0625 13.90625 C 29.0691 13.874 29.08931 13.811562 29.09375 13.78125 C 29.10707 13.69165 29.11849 13.61984 29.15625 13.5625 C 29.20708 13.48529 29.289608 13.43984 29.40625 13.375 C 29.601727 13.266179 29.875 13.111596 29.875 12.8125 C 29.875 12.76493 29.88904 12.712294 29.875 12.65625 C 29.85611 12.58295 29.762407 12.520827 29.6875 12.53125 C 29.63729 12.53815 29.599287 12.57519 29.5625 12.59375 C 29.59412 12.51914 29.621058 12.405356 29.65625 12.3125 C 29.799321 12.25601 29.910518 12.161352 29.96875 12.0625 z M 17.28125 12.21875 C 17.37151 12.23504 17.478085 12.25453 17.5625 12.28125 C 17.61284 12.29737 17.680541 12.31451 17.71875 12.28125 C 17.66122 12.37271 17.589335 12.479237 17.5625 12.59375 C 17.4817 12.56998 17.419012 12.54069 17.34375 12.53125 C 17.25871 12.52018 17.19111 12.49416 17.125 12.46875 C 17.16443 12.354715 17.188723 12.302162 17.28125 12.21875 z M 30.75 12.28125 C 30.8334 12.30634 30.91461 12.36 31 12.375 C 31.225458 12.4154 31.37068 12.436402 31.4375 12.5625 C 31.41243 12.57619 31.40625 12.59375 31.40625 12.59375 L 31.15625 12.71875 C 31.11457 12.7435 31.09375 12.800738 31.09375 12.84375 C 31.09375 12.86134 31.08835 12.88736 31.09375 12.90625 C 31.10903 12.95643 31.13671 12.960566 31.15625 13 C 31.05915 13.0039 30.966549 13.01692 30.875 13.03125 C 30.89455 13.01855 30.89488 13.02087 30.90625 13 C 30.95414 12.91073 30.96875 12.821353 30.96875 12.75 C 30.96875 12.620001 30.898574 12.482604 30.75 12.28125 z M 32.3125 12.3125 C 32.421972 12.563376 32.543193 12.646492 33.03125 13 C 33.0785 13.03388 33.106052 13.02867 33.15625 13 C 33.188 12.98201 33.252007 12.98856 33.28125 12.96875 C 33.3045 13.02911 33.335252 13.104607 33.40625 13.15625 C 33.599452 13.295701 33.871253 13.21592 34.0625 13.09375 C 34.235808 12.982648 34.340223 12.858849 34.3125 12.71875 C 34.3099 12.70885 34.29235 12.64971 34.28125 12.625 C 34.3968 12.628 34.496413 12.581701 34.65625 12.46875 C 34.68619 12.51664 34.73241 12.557578 34.75 12.59375 C 34.76987 12.63578 34.829679 12.67805 34.875 12.6875 L 35 12.71875 C 35.04661 12.72855 35.120442 12.71967 35.15625 12.6875 C 35.15625 12.6875 35.220622 12.584059 35.3125 12.5 C 35.33622 12.57884 35.375 12.651954 35.375 12.71875 C 35.375 12.80998 35.3262 12.898374 35.28125 12.96875 C 35.137569 13.194212 34.679949 13.490903 33.28125 13.46875 C 33.24185 13.468092 33.184232 13.441051 33.15625 13.46875 C 33.12765 13.49645 33.15656 13.553997 33.15625 13.59375 C 33.15365 14.049563 33.14158 14.138601 33.09375 14.21875 C 32.794328 14.09429 32.461207 14.067743 32.15625 14.03125 C 31.935679 14.00485 31.732599 13.992883 31.53125 13.9375 C 31.53605 13.8909 31.53125 13.827191 31.53125 13.78125 C 31.53125 13.64343 31.489681 13.482276 31.40625 13.28125 C 31.44734 13.29494 31.499339 13.31054 31.53125 13.3125 C 31.765832 13.33009 32.018487 13.161602 32.09375 13 C 32.14914 12.882054 32.160759 12.806421 32.1875 12.6875 C 32.2165 12.558804 32.254829 12.411221 32.3125 12.3125 z M 33.875 12.40625 C 33.92825 12.46007 33.966926 12.524111 34.03125 12.5625 C 33.93513 12.65372 33.901803 12.66052 33.78125 12.625 C 33.73924 12.61251 33.689402 12.59961 33.65625 12.59375 C 33.72054 12.52541 33.809424 12.465988 33.875 12.40625 z M 38.8125 12.71875 C 38.76101 12.81129 38.703816 12.909455 38.625 12.96875 C 38.59369 12.93877 38.55898 12.90205 38.53125 12.875 C 38.53835 12.8714 38.722896 12.76111 38.8125 12.71875 z M 37.15625 14.71875 C 37.20739 14.7295 37.253232 14.72175 37.3125 14.71875 C 37.34052 14.78033 37.37755 14.885695 37.40625 14.9375 C 37.3173 14.87038 37.211963 14.76078 37.15625 14.71875 z M 37.9375 15.46875 C 37.98213 15.49581 38.048442 15.53675 38.09375 15.5625 C 38.300636 15.680119 38.476759 15.789795 38.625 16.0625 C 38.56668 16.0664 38.453221 16.061611 38.34375 15.96875 C 38.19518 15.84103 38.059998 15.665187 37.9375 15.5 C 37.9314 15.4925 37.9437 15.47657 37.9375 15.46875 z M 6.8125 16.34375 L 6.71875 16.375 C 6.5635381 16.9999 6.4403905 17.635536 6.34375 18.28125 L 2.09375 18.84375 C 2.0482417 18.849953 2 18.89129 2 18.9375 L 2 23.375 C 2 23.42084 2.048242 23.46252 2.09375 23.46875 L 6.28125 24.0625 C 6.358119 24.634496 6.4710329 25.193621 6.59375 25.75 L 8.09375 25.75 L 8.75 25.8125 C 8.3983724 24.393148 8.1875 22.932908 8.1875 21.40625 C 8.1875 19.648605 8.4444699 17.955407 8.90625 16.34375 C 8.3929588 16.343741 6.817048 16.343133 6.8125 16.34375 z M 41.65625 21.125 C 41.62009 21.84961 41.483744 22.164738 41.09375 22.5 C 41.19221 22.940501 41.215899 23.156397 41.125 23.71875 C 41.05038 24.178474 41.02075 24.349305 41.125 24.6875 C 41.298005 24.543492 41.650311 24.743086 41.75 24.46875 C 41.7523 24.46095 42.030362 22.35817 42.03125 22.25 C 42.03835 21.421783 41.783965 21.222092 41.65625 21.125 z M 11.5 24.25 C 11.47335 24.2541 11.45839 24.26328 11.4375 24.28125 C 11.39582 24.31644 11.36327 24.383748 11.375 24.4375 C 11.42218 24.654165 11.43167 24.750158 11.40625 24.9375 C 11.40065 24.97758 11.41273 24.999647 11.4375 25.03125 C 11.46264 25.06318 11.491177 25.08949 11.53125 25.09375 L 12.0625 25.15625 C 12.10911 25.16075 12.187117 25.15957 12.21875 25.125 C 12.2503 25.09078 12.25889 25.015021 12.25 24.96875 C 12.20927 24.747196 12.145609 24.618271 12.03125 24.5 C 12.030601 24.499 11.84375 24.375 11.84375 24.375 C 11.84375 24.374671 11.6875 24.3125 11.6875 24.3125 L 11.59375 24.25 C 11.56815 24.23974 11.52667 24.2459 11.5 24.25 z M 42.78125 30.21875 C 41.241176 33.037567 38.975262 35.377682 36.25 37.0625 C 36.676177 37.485685 37.809518 38.622723 37.8125 38.625 C 38.147418 38.408899 38.460036 38.172141 38.78125 37.9375 C 38.920627 37.835682 39.050808 37.730203 39.1875 37.625 C 40.522929 38.638976 42.71875 40.3125 42.71875 40.3125 C 42.75546 40.34037 42.810747 40.31351 42.84375 40.28125 L 45.96875 37.15625 C 46.00176 37.12361 45.99746 37.068285 45.96875 37.03125 L 43.28125 33.46875 C 43.667161 32.94165 44.039547 32.375843 44.375 31.8125 C 44.367 31.8041 44.35186 31.78933 44.34375 31.78125 L 42.84375 30.28125 L 42.78125 30.21875 z M 10.71875 30.65625 L 10.59375 30.78125 L 9.1875 32.1875 C 9.5147345 32.712537 9.8782453 33.195368 10.25 33.6875 L 7.71875 37.03125 C 7.690845 37.06829 7.686544 37.123615 7.71875 37.15625 L 10.84375 40.28125 C 10.87636 40.31389 10.931747 40.3407 10.96875 40.3125 L 14.3125 37.75 C 14.804605 38.121691 15.287472 38.485402 15.8125 38.8125 L 16.84375 37.78125 L 17.34375 37.28125 C 14.597484 35.676182 12.323785 33.402568 10.71875 30.65625 z M 31.625 39.125 C 30.024214 39.580038 28.338088 39.8125 26.59375 39.8125 C 25.090707 39.8125 23.649353 39.622427 22.25 39.28125 L 22.25 40.09375 L 22.25 41.40625 C 22.806371 41.529113 23.365537 41.641895 23.9375 41.71875 C 24.17275 43.437356 24.53125 45.90625 24.53125 45.90625 C 24.53725 45.95173 24.57879 46 24.625 46 L 29.0625 46 C 29.10871 46 29.15005 45.95173 29.15625 45.90625 L 29.71875 41.65625 C 30.364505 41.55961 30.99997 41.436465 31.625 41.28125 L 31.625 39.875 L 31.625 39.125 z "
     id="path-main" />
</defs>
<acyl-settings>
<linearGradient
     id="linearGradient4321">
    <stop
       style="stop-color:#7B7B7B;stop-opacity:1.0;"
       offset="0.0"
       id="stop1" />
  </linearGradient>
<linearGradient
     inkscape:collect="always"
     xlink:href="#linearGradient4321"
     id="acyl_gradient"
     x1="50.0%"
     y1="0.0%"
     x2="50.0%"
     y2="100.0%" />
<filter id="filter1111" x="-50%" y="-50%" width="200%" height="200%">
	<feImage
	id="feImage2"
	xlink:href="#1"
	result="result1" />
	<feComposite
	id="feComposite3633"
	in="result1"
	in2="SourceAlpha"
	operator="out" />
</filter>
<defs>
<use id="1" transform="translate(22.5,22.5) scale(1) translate(-22.5,-22.5)" style="stroke-opacity:1;stroke:url(#acyl_gradient);stroke-width:4" xlink:href="#path-main" />
</defs>
<use id="2" transform="translate(22.5,22.5) scale(1) translate(-22.5,-22.5)" style="fill:url(#acyl_gradient);filter:url(#filter1111)" xlink:href="#path-main" />
</acyl-settings>
</svg>
