<svg xmlns="http://www.w3.org/2000/svg" width="48" height="48">
<defs>
<defs
     id="defs4">
  </defs>
  <path
     id="path-main"
     d="M 24,2 C 11.854552,2 2,11.854552 2,24 2,36.145448 11.854552,46.000002 24,46 36.145448,46 46.000002,36.145448 46,24 46,11.854552 36.145447,2 24,2 z m -0.05774,1.0682415 c 2.581043,0 4.20476,0.3382257 5.196851,0.9816273 0.496044,0.3217008 0.826206,0.7460751 0.981627,1.2125984 0.15542,0.4665233 0.126223,0.9436296 0,1.4146982 -0.276664,1.0325225 -1.270231,4.9068566 -2.685039,9.2677166 0.450144,-0.842408 0.890982,-1.667752 1.328084,-2.454068 0.886479,-1.594715 1.721822,-3.025335 2.396325,-4.128609 0.674503,-1.103275 1.1186,-1.8115143 1.472441,-2.1653546 0.235123,-0.2351224 0.501494,-0.5004983 0.83727,-0.6929134 0.335777,-0.1924151 0.762709,-0.2868379 1.24147,-0.2020997 0.957522,0.1694763 2.078756,0.9239032 3.897638,2.7427817 1.825066,1.82507 2.727193,3.203114 2.973753,4.35958 0.123281,0.578234 0.07563,1.119275 -0.144357,1.559056 -0.219982,0.439781 -0.588149,0.766655 -1.010498,1.010498 -0.930137,0.537016 -4.405256,2.559283 -8.517061,4.648294 0.926528,-0.281838 1.836677,-0.558 2.713911,-0.808399 1.754468,-0.500797 3.362345,-0.909412 4.619422,-1.212598 1.257078,-0.303187 2.098021,-0.490814 2.598426,-0.490814 0.332516,0 0.665881,-0.01475 1.03937,0.08661 0.373488,0.101372 0.760753,0.32333 1.03937,0.721785 0.557233,0.796909 0.808399,2.133752 0.808399,4.706037 0,2.581039 -0.338226,4.204761 -0.981628,5.19685 -0.321701,0.496045 -0.746075,0.826207 -1.212598,0.981628 -0.466523,0.15542 -0.943631,0.126223 -1.414698,0 -1.009231,-0.270422 -4.739869,-1.213346 -8.979003,-2.569554 0.728979,0.391552 1.452109,0.774422 2.136483,1.154855 1.594715,0.88648 3.025335,1.721822 4.128609,2.396326 1.103274,0.674504 1.840386,1.147468 2.194226,1.501312 0.235123,0.235122 0.500498,0.472623 0.692913,0.808399 0.192416,0.335777 0.286838,0.79158 0.2021,1.270341 -0.169476,0.957523 -0.952778,2.078757 -2.771654,3.897638 -1.825073,1.82507 -3.203114,2.727194 -4.35958,2.973753 -0.578233,0.123281 -1.090403,0.04676 -1.530183,-0.173228 -0.43978,-0.219982 -0.795527,-0.58815 -1.03937,-1.010499 -0.466461,-0.80793 -2.060472,-3.540501 -3.839895,-6.929133 1.141452,3.66824 1.952432,6.748533 2.194225,7.650918 0.126223,0.471069 0.126549,0.977047 -0.02887,1.44357 -0.155421,0.466523 -0.485582,0.862027 -0.981627,1.183727 -0.992091,0.643401 -2.586936,0.981627 -5.167979,0.981627 -2.572281,10e-7 -3.909129,-0.222294 -4.706037,-0.779527 -0.398454,-0.278617 -0.649284,-0.665882 -0.750656,-1.039371 -0.101373,-0.373488 -0.08661,-0.735727 -0.08661,-1.068241 0,-0.500405 0.187627,-1.341346 0.490813,-2.598425 0.303187,-1.257079 0.740673,-2.864954 1.24147,-4.619423 0.250399,-0.877234 0.529267,-1.787383 0.808399,-2.713911 -2.084781,4.101477 -4.112302,7.559827 -4.648294,8.488189 -0.24384,0.42235 -0.570719,0.790517 -1.010499,1.010499 -0.43978,0.219983 -0.980821,0.267637 -1.559055,0.144357 C 12.59419,40.960789 11.216143,40.058666 9.3910761,38.233596 7.5721946,36.414716 6.8177724,35.29348 6.648294,34.335958 c -0.084739,-0.478762 0.00968,-0.905692 0.2020997,-1.24147 0.192415,-0.335777 0.4577897,-0.602147 0.6929134,-0.83727 0.35384,-0.35384 1.0620796,-0.797938 2.1653543,-1.472441 1.1032746,-0.674503 2.5338956,-1.509846 4.1286086,-2.396326 0.713596,-0.396677 1.461666,-0.804218 2.223097,-1.212598 -4.276437,1.379858 -8.049282,2.35497 -9.0656163,2.627297 -0.4710706,0.126222 -0.9481747,0.15542 -1.4146982,0 C 5.113529,29.647729 4.689154,29.288696 4.3674541,28.792651 c -0.6434,-0.99209 -0.9816273,-2.58694 -0.9816273,-5.167979 0,-2.572285 0.2511678,-3.909128 0.8083989,-4.706037 0.2786156,-0.398455 0.6658825,-0.649284 1.0393701,-0.750656 0.3734876,-0.101372 0.7357279,-0.08661 1.0682415,-0.08661 0.5004054,0 1.3124741,0.187627 2.5695538,0.490813 1.2570799,0.303187 2.8649539,0.740672 4.6194229,1.24147 1.30347,0.372064 2.685343,0.812132 4.070866,1.24147 C 16.284285,20.383862 15.017565,19.69023 13.83727,19.034121 12.242557,18.147642 10.783065,17.312298 9.67979,16.637795 8.5765153,15.963292 7.8682753,15.519191 7.5144357,15.165354 7.2793125,14.930231 7.0139372,14.663861 6.8215223,14.328084 6.6291074,13.992307 6.5346833,13.565376 6.6194226,13.086614 6.7889011,12.129091 7.543322,11.007856 9.3622047,9.188976 11.18727,7.3639061 12.565319,6.4617831 13.721785,6.2152231 c 0.578233,-0.12328 1.119275,-0.046755 1.559055,0.1732283 0.43978,0.219983 0.766658,0.559278 1.010499,0.9816273 0.531832,0.9211553 2.543433,4.3419553 4.619422,8.4015753 C 20.641768,14.885057 20.371117,14.013622 20.131234,13.173228 19.630436,11.41876 19.221822,9.839756 18.918635,8.582677 18.615449,7.3255986 18.427822,6.484657 18.427822,5.984252 c 0,-0.3325148 -0.01475,-0.6947532 0.08661,-1.0682415 0.101372,-0.3734883 0.32333,-0.7607536 0.721784,-1.0393701 0.796909,-0.5572331 2.133756,-0.8083989 4.706037,-0.8083989 z m 0,0.9238845 c -2.50514,0 -3.686989,0.3061828 -4.15748,0.6351706 -0.235246,0.1644938 -0.318764,0.3112848 -0.375328,0.519685 -0.05656,0.2084003 -0.05774,0.5043031 -0.05774,0.8372704 0,0.1828059 0.163125,1.1284912 0.461942,2.367454 0.298818,1.238963 0.714558,2.845741 1.212599,4.590551 0.877261,3.073356 2.010671,6.466772 3.060367,9.354331 C 26.692429,15.94898 28.801513,8.0293626 29.225722,6.4461942 29.318585,6.0996268 29.339573,5.8062646 29.254593,5.5511811 29.169613,5.2960976 28.976573,5.0610199 28.619423,4.8293963 27.90512,4.3661492 26.438649,3.992126 23.942257,3.992126 z m -9.729659,3.0892388 c -0.09005,0.00544 -0.184632,0.00668 -0.288713,0.028871 -0.832652,0.1775225 -2.13243,0.9775696 -3.897638,2.7427818 -1.7714076,1.7714054 -2.411752,2.8415074 -2.5118113,3.4068254 -0.050029,0.282658 0.00812,0.447813 0.1154856,0.63517 0.1073638,0.187357 0.2842419,0.370857 0.519685,0.606299 0.1292673,0.129267 0.9336217,0.692173 2.0209977,1.356956 1.087376,0.664783 2.513803,1.485855 4.099737,2.367454 2.79461,1.553485 5.992141,3.175324 8.776903,4.475065 C 20.401135,16.372954 16.301906,9.250506 15.48294,7.832021 15.303546,7.521298 15.117101,7.3171313 14.87664,7.1968504 14.696295,7.1066397 14.482749,7.0650522 14.212598,7.0813648 z m 19.979003,0.1154856 c -0.100041,0.021705 -0.195036,0.061803 -0.288714,0.1154856 -0.187357,0.1073643 -0.370855,0.2842418 -0.606299,0.519685 -0.129264,0.129264 -0.692173,0.933622 -1.356955,2.020997 -0.664783,1.087375 -1.485856,2.513803 -2.367455,4.099738 -1.553484,2.79461 -3.175319,5.992138 -4.475065,8.776903 6.327834,-2.646111 13.450281,-6.74534 14.868766,-7.564305 0.310725,-0.179396 0.514889,-0.394709 0.635171,-0.63517 0.120281,-0.240462 0.175375,-0.507558 0.08661,-0.923885 C 40.51014,12.773646 39.71009,11.473874 37.944881,9.708661 36.173474,7.9372578 35.103372,7.2969083 34.538057,7.1968504 c -0.141329,-0.025014 -0.246416,-0.021705 -0.346457,0 z M 5.839895,19.005249 c -0.1416469,0.0074 -0.2711286,0.02946 -0.3753281,0.05774 -0.208399,0.05656 -0.3551917,0.140082 -0.519685,0.375328 -0.3289865,0.470491 -0.6351706,1.681208 -0.6351706,4.186352 0,2.496389 0.3740247,3.962864 0.8372703,4.677165 0.2316229,0.357151 0.4667009,0.52132 0.7217848,0.606299 0.2550839,0.08498 0.5484426,0.09286 0.8950131,0 C 8.3497785,28.483167 16.289907,26.35254 22.643045,23.740157 19.751093,22.68785 16.34177,21.559499 13.259843,20.67979 11.515032,20.181749 9.9082553,19.766009 8.6692913,19.467192 7.4303274,19.168374 6.4846462,19.005249 6.3018373,19.005249 c -0.1664832,0 -0.3202954,-0.0074 -0.4619423,0 z m 36.002625,0.02887 c -0.182805,0 -1.157363,0.163124 -2.396326,0.461942 -1.238962,0.298818 -2.81687,0.714558 -4.56168,1.212598 -3.06582,0.875112 -6.470667,2.012966 -9.35433,3.060368 6.343995,2.601567 14.240172,4.744258 15.821522,5.167979 0.346566,0.09286 0.63993,0.08498 0.895013,0 0.255083,-0.08498 0.490162,-0.249149 0.721785,-0.606299 0.463248,-0.714303 0.83727,-2.209648 0.83727,-4.706037 0,-2.505144 -0.306182,-3.68699 -0.63517,-4.15748 -0.164494,-0.235245 -0.311284,-0.318765 -0.519685,-0.375328 -0.208402,-0.05656 -0.475429,-0.05774 -0.808399,-0.05774 z m -18.737533,5.687664 c -2.789394,1.300922 -6.003869,2.917525 -8.805774,4.475065 -1.585935,0.8816 -3.012363,1.702672 -4.099738,2.367454 -1.0873754,0.664783 -1.8917313,1.227691 -2.0209973,1.356956 -0.2354435,0.235443 -0.4123211,0.447813 -0.519685,0.63517 -0.107364,0.187358 -0.1655153,0.352512 -0.1154856,0.635171 0.1000594,0.565318 0.7404047,1.606547 2.5118109,3.377953 1.765209,1.765212 3.064985,2.565259 3.897638,2.742782 0.416326,0.08876 0.683425,0.03367 0.923884,-0.08661 0.24046,-0.120281 0.455778,-0.324448 0.635171,-0.635171 0.820368,-1.420913 4.947754,-8.532751 7.593176,-14.868766 z m 1.963254,0.02887 c 2.646171,6.327091 6.716591,13.421626 7.535434,14.839895 0.179397,0.310725 0.394709,0.543761 0.63517,0.664042 0.240461,0.120282 0.53643,0.146504 0.952756,0.05774 0.832652,-0.177523 2.132422,-0.948698 3.897638,-2.713911 1.7714,-1.771405 2.382882,-2.841506 2.482939,-3.406824 0.05003,-0.282659 0.02075,-0.447813 -0.08661,-0.635171 -0.107368,-0.187351 -0.313117,-0.37085 -0.54856,-0.606293 -0.129259,-0.12926 -0.904751,-0.692172 -1.992126,-1.356955 C 36.857507,30.928393 35.43108,30.07845 33.845144,29.19685 31.057401,27.647184 27.848617,26.049268 25.068241,24.750656 z m -0.981627,0.433071 c -1.049696,2.887559 -2.183106,6.280975 -3.060367,9.354331 -0.498041,1.74481 -0.913781,3.351588 -1.212599,4.590551 -0.298817,1.238963 -0.461942,2.184647 -0.461942,2.367454 0,0.332967 0.0012,0.599998 0.05774,0.808399 0.05656,0.208401 0.140082,0.355191 0.375328,0.519685 0.470491,0.328988 1.681213,0.635172 4.186352,0.635171 2.496392,0 3.962863,-0.345153 4.677165,-0.808399 0.357151,-0.231624 0.521319,-0.466702 0.606299,-0.721785 0.08498,-0.255084 0.09286,-0.577318 0,-0.923885 -0.423743,-1.581433 -2.566199,-9.477341 -5.167979,-15.821522 z" />
</defs>
<acyl-settings>
<linearGradient
     id="linearGradient4321">
    <stop
       style="stop-color:#7B7B7B;stop-opacity:1.0;"
       offset="0.0"
       id="stop1" />
  </linearGradient>
<linearGradient
     inkscape:collect="always"
     xlink:href="#linearGradient4321"
     id="acyl_gradient"
     x1="50.0%"
     y1="0.0%"
     x2="50.0%"
     y2="100.0%" />
<filter id="filter1111" x="-50%" y="-50%" width="200%" height="200%">
	<feImage
	id="feImage2"
	xlink:href="#1"
	result="result1" />
	<feComposite
	id="feComposite3633"
	in="result1"
	in2="SourceAlpha"
	operator="out" />
</filter>
<defs>
<use id="1" transform="translate(22.5,22.5) scale(1) translate(-22.5,-22.5)" style="stroke-opacity:1;stroke:url(#acyl_gradient);stroke-width:4" xlink:href="#path-main" />
</defs>
<use id="2" transform="translate(22.5,22.5) scale(1) translate(-22.5,-22.5)" style="fill:url(#acyl_gradient);filter:url(#filter1111)" xlink:href="#path-main" />
</acyl-settings>
</svg>
