<svg xmlns="http://www.w3.org/2000/svg" width="48" height="48">
<defs>
<defs
     id="defs2564">
  </defs>
  <path
     id="path-main"
     d="m 13.135054,2.0103907 c -0.800785,0.1636542 -1.412861,0.9070221 -1.412861,1.7565296 l 0,40.4765497 c 0,0.970867 0.785664,1.75653 1.75653,1.75653 l 20.925613,0 c 0.970865,10e-7 1.756529,-0.785664 1.756529,-1.75653 l 0,-40.4765497 c 0,-0.9708661 -0.785664,-1.7565296 -1.756529,-1.7565296 l -20.925613,0 c -0.121359,0 -0.229272,-0.023379 -0.343669,0 z m 1.221933,2.4438672 19.169083,0 0,14.6632031 -19.169083,0 0,-14.6632031 z m 9.584542,18.0998911 c 5.396057,0 9.775469,4.37941 9.775469,9.775469 -10e-7,5.39606 -4.379411,9.775468 -9.775469,9.775468 -5.396059,-10e-7 -9.775468,-4.37941 -9.775468,-9.775468 0,-5.396056 4.379409,-9.775469 9.775468,-9.775469 z m 0,4.773178 c -2.698029,0 -4.887734,2.330004 -4.887734,5.193218 0,2.863215 2.189705,5.193215 4.887734,5.193217 2.69803,0 4.887734,-2.330002 4.887734,-5.193217 0,-2.863216 -2.189704,-5.193218 -4.887734,-5.193218 z" />
</defs>
<acyl-settings>
<linearGradient
     id="linearGradient4321">
    <stop
       style="stop-color:#7B7B7B;stop-opacity:1.0;"
       offset="0.0"
       id="stop1" />
  </linearGradient>
<linearGradient
     inkscape:collect="always"
     xlink:href="#linearGradient4321"
     id="acyl_gradient"
     x1="50.0%"
     y1="0.0%"
     x2="50.0%"
     y2="100.0%" />
<filter id="filter1111" x="-50%" y="-50%" width="200%" height="200%">
	<feImage
	id="feImage2"
	xlink:href="#1"
	result="result1" />
	<feComposite
	id="feComposite3633"
	in="result1"
	in2="SourceAlpha"
	operator="out" />
</filter>
<defs>
<use id="1" transform="translate(22.5,22.5) scale(1) translate(-22.5,-22.5)" style="stroke-opacity:1;stroke:url(#acyl_gradient);stroke-width:4" xlink:href="#path-main" />
</defs>
<use id="2" transform="translate(22.5,22.5) scale(1) translate(-22.5,-22.5)" style="fill:url(#acyl_gradient);filter:url(#filter1111)" xlink:href="#path-main" />
</acyl-settings>
</svg>
