<svg xmlns="http://www.w3.org/2000/svg" width="48" height="48">
<defs>
  <path
     d="m 26.540713,12.083649 c -1.939727,-0.03442 -4.081519,0.643618 -6.416179,2.868547 -6.459899,-2.189458 -8.824368,0.983443 -11.53273,3.69984 3.864792,-1.682052 7.750278,-3.197663 12.200107,-0.78446 2.21719,-2.356797 4.915474,-4.423314 11.544438,-4.133049 C 30.685615,13.090119 28.73907,12.12266 26.540713,12.083649 z M 14.656732,26.625426 C 9.514956,26.655786 5.7735786,29.529234 2,32.198604 9.397907,30.316418 16.783048,28.744464 24.035125,34.352941 28.684211,30.785216 34.234914,29.071809 46,31.519519 40.798586,28.624266 34.377818,23.448053 24.093667,29.353473 20.424082,27.361991 17.350044,26.609527 14.656732,26.625426 z"
     id="path-main"
      />
</defs>
<acyl-settings>
<linearGradient
     id="linearGradient4321">
    <stop
       style="stop-color:#7B7B7B;stop-opacity:1.0;"
       offset="0.0"
       id="stop1" />
  </linearGradient>
<linearGradient
     inkscape:collect="always"
     xlink:href="#linearGradient4321"
     id="acyl_gradient"
     x1="50.0%"
     y1="0.0%"
     x2="50.0%"
     y2="100.0%" />
<filter id="filter1111" x="-50%" y="-50%" width="200%" height="200%">
	<feImage
	id="feImage2"
	xlink:href="#1"
	result="result1" />
	<feComposite
	id="feComposite3633"
	in="result1"
	in2="SourceAlpha"
	operator="out" />
</filter>
<defs>
<use id="1" transform="translate(22.5,22.5) scale(1) translate(-22.5,-22.5)" style="stroke-opacity:1;stroke:url(#acyl_gradient);stroke-width:4" xlink:href="#path-main" />
</defs>
<use id="2" transform="translate(22.5,22.5) scale(1) translate(-22.5,-22.5)" style="fill:url(#acyl_gradient);filter:url(#filter1111)" xlink:href="#path-main" />
</acyl-settings>
</svg>
