<svg xmlns="http://www.w3.org/2000/svg" width="48" height="48">
<defs>
  <path
     d="M 2,2 2,6.167969 C 24.023697,6.167969 41.832032,23.976307 41.832032,46 L 46,46 C 46.000009,21.744428 26.255577,2 2,2 z m 1.332031,8.550782 c -0.492673,0 -0.936034,0.109216 -1.332031,0.34375 l 0,4.554688 c 0.3971,0.229889 0.837303,0.386718 1.332031,0.386718 1.470668,0 2.664063,-1.160416 2.664063,-2.621093 0,-1.460675 -1.193395,-2.664063 -2.664063,-2.664063 z m 21.011721,10.484376 c -1.446844,0 -2.621094,1.203386 -2.621094,2.664063 0,0.214537 0.03813,0.401783 0.08594,0.601562 L 2.000002,36.9336 l 0,9.0664 9.066407,0 12.589845,-19.765623 c 0.220581,0.0609 0.447866,0.08594 0.6875,0.08594 1.446844,0 2.621093,-1.160419 2.621094,-2.621094 0,-0.644712 -0.221569,-1.259538 -0.601563,-1.71875 l 0.601563,-0.945313 -0.988281,0.601563 C 25.527009,21.271001 24.965618,21.03516 24.343754,21.03516 z M 34.828128,41.96094 c -1.446844,0 -2.621093,1.16042 -2.621094,2.6211 0,0.52627 0.166995,1.00274 0.429688,1.41796 l 4.425781,0 c 0.262693,-0.41522 0.386719,-0.89169 0.386719,-1.41796 0,-1.46068 -1.17425,-2.6211 -2.621094,-2.6211 z"
     id="path-main"
      />
</defs>
<acyl-settings>
<linearGradient
     id="linearGradient4321">
    <stop
       style="stop-color:#7B7B7B;stop-opacity:1.0;"
       offset="0.0"
       id="stop1" />
  </linearGradient>
<linearGradient
     inkscape:collect="always"
     xlink:href="#linearGradient4321"
     id="acyl_gradient"
     x1="50.0%"
     y1="0.0%"
     x2="50.0%"
     y2="100.0%" />
<filter id="filter1111" x="-50%" y="-50%" width="200%" height="200%">
	<feImage
	id="feImage2"
	xlink:href="#1"
	result="result1" />
	<feComposite
	id="feComposite3633"
	in="result1"
	in2="SourceAlpha"
	operator="out" />
</filter>
<defs>
<use id="1" transform="translate(22.5,22.5) scale(1) translate(-22.5,-22.5)" style="stroke-opacity:1;stroke:url(#acyl_gradient);stroke-width:4" xlink:href="#path-main" />
</defs>
<use id="2" transform="translate(22.5,22.5) scale(1) translate(-22.5,-22.5)" style="fill:url(#acyl_gradient);filter:url(#filter1111)" xlink:href="#path-main" />
</acyl-settings>
</svg>
