<svg xmlns="http://www.w3.org/2000/svg" width="48" height="48">
<defs>
<defs
     id="defs2385">
  </defs>
  <path
     id="path-main"
     d="m 22.881703,3.1764043 c -2.926495,0.124112 -6.081364,1.0712255 -8.636688,2.6119018 l 3.621837,5.7461839 c 9.45575,-4.26212 18.286923,1.067109 19.885279,12.571954 l 6.616817,-0.208952 C 44.84008,20.265373 42.419207,14.927098 39.528224,10.977284 35.117998,12.275771 29.64995,9.379082 27.722428,3.8729114 26.317208,3.3270515 24.637601,3.1019371 22.881703,3.1764043 z M 12.643048,6.5892893 C 9.2282813,7.9135299 5.7082718,12.608395 3.6232811,17.036896 6.8737272,20.288168 6.9438727,26.50054 3.03125,30.827738 3.5461046,34.814677 7.0246664,39.3175 11.145558,41.728074 l 3.308409,-5.955136 C 6.1869377,29.509305 6.6487677,19.209122 15.986283,12.300648 L 12.643048,6.5892893 z m 10.691385,5.6765327 c -6.616329,0 -11.979923,5.363595 -11.979923,11.979923 0,6.616329 5.363594,11.979923 11.979923,11.979923 6.616329,0 11.979923,-5.363594 11.979923,-11.979923 0,-6.616328 -5.363594,-11.979923 -11.979923,-11.979923 z m -1.810919,2.611902 c 1.025131,5.42e-4 1.826338,0.446205 2.159173,1.323364 0.665669,1.754317 -0.775836,4.58555 -3.238759,6.338215 -2.462922,1.752665 -5.010864,1.754317 -5.676533,0 -0.665669,-1.754318 0.775836,-4.58555 3.238758,-6.338215 1.231462,-0.876333 2.492231,-1.323905 3.517361,-1.323364 z m 22.357879,10.586909 -6.825769,0.278602 C 36.045079,36.065814 27.038616,41.08889 16.264886,36.748048 l -3.099457,5.815835 c 2.915583,2.21667 8.717116,2.769943 13.581889,2.228823 1.069233,-4.471342 6.314593,-7.755702 12.049573,-6.686469 3.12783,-2.52536 5.187195,-7.868548 5.084502,-12.641604 z"
/>
</defs>
<acyl-settings>
<linearGradient
     id="linearGradient4321">
    <stop
       style="stop-color:#7B7B7B;stop-opacity:1.0;"
       offset="0.0"
       id="stop1" />
  </linearGradient>
<linearGradient
     inkscape:collect="always"
     xlink:href="#linearGradient4321"
     id="acyl_gradient"
     x1="50.0%"
     y1="0.0%"
     x2="50.0%"
     y2="100.0%" />
<filter id="filter1111" x="-50%" y="-50%" width="200%" height="200%">
	<feImage
	id="feImage2"
	xlink:href="#1"
	result="result1" />
	<feComposite
	id="feComposite3633"
	in="result1"
	in2="SourceAlpha"
	operator="out" />
</filter>
<defs>
<use id="1" transform="translate(22.5,22.5) scale(1) translate(-22.5,-22.5)" style="stroke-opacity:1;stroke:url(#acyl_gradient);stroke-width:4" xlink:href="#path-main" />
</defs>
<use id="2" transform="translate(22.5,22.5) scale(1) translate(-22.5,-22.5)" style="fill:url(#acyl_gradient);filter:url(#filter1111)" xlink:href="#path-main" />
</acyl-settings>
</svg>
