<svg xmlns="http://www.w3.org/2000/svg" width="48" height="48">
<defs>
  <path
     d="m 24.720216,46 c 0.759892,-0.0177 1.711924,-0.0772 2.980524,-0.22354 4.570004,-0.52731 6.943124,-2.36533 7.99774,-2.98052 1.054616,-0.6152 4.744001,-3.95219 4.744001,-8.25854 l 0,-24.974309 1.105278,0 c 0.398214,0.0015 0.790233,-0.135218 0.990655,-0.345663 0.200422,-0.210444 0.201555,-0.486465 0.0028,-0.697521 l -5.812023,-6.15975 c -0.189305,-0.20103 -0.552416,-0.336592 -0.931342,-0.347728 -0.03689,-0.0053 -0.07421,-0.0094 -0.11177,-0.01242 -0.0041,-1.3e-5 -0.0083,-1.3e-5 -0.01242,0 -0.378926,0.01114 -0.742037,0.146698 -0.931414,0.347728 l -5.824441,6.15975 c -0.20894,0.211599 -0.213764,0.492703 -0.01213,0.706936 0.201632,0.214234 0.601512,0.352876 1.005641,0.348667 l 1.043183,0 0,26.017489 c 0,1.66981 -0.172945,2.9118 -1.40333,4.66949 -1.06681,1.52402 -3.646501,1.85043 -4.830933,1.9125 l -0.620943,0 c -1.184432,-0.0621 -3.764122,-0.38848 -4.830933,-1.9125 -1.230385,-1.75769 -1.40333,-2.99968 -1.40333,-4.66949 l 0,-26.017489 1.043184,0 c 0.404128,0.0042 0.804009,-0.134433 1.00564,-0.348667 0.201632,-0.214233 0.196808,-0.495337 -0.01213,-0.706936 l -5.824442,-6.15975 c -0.191575,-0.203106 -0.56069,-0.339096 -0.943832,-0.347728 -0.03756,0.003 -0.07488,0.0071 -0.11177,0.01242 -0.378925,0.01114 -0.742037,0.146698 -0.931414,0.347728 l -5.8120221,6.15975 c -0.1987,0.211056 -0.197571,0.487077 0.0029,0.697521 0.200424,0.210445 0.592443,0.34723 0.990656,0.345663 l 1.105277,0 0,24.974309 c 0,4.30635 3.6893861,7.64334 4.7440021,8.25854 1.054616,0.61519 3.427736,2.45321 7.99774,2.98052 1.2686,0.14638 2.220631,0.20586 2.980524,0.22354 z"
     id="path-main"
      />
</defs>
<acyl-settings>
<linearGradient
     id="linearGradient4321">
    <stop
       style="stop-color:#7B7B7B;stop-opacity:1.0;"
       offset="0.0"
       id="stop1" />
  </linearGradient>
<linearGradient
     inkscape:collect="always"
     xlink:href="#linearGradient4321"
     id="acyl_gradient"
     x1="50.0%"
     y1="0.0%"
     x2="50.0%"
     y2="100.0%" />
<filter id="filter1111" x="-50%" y="-50%" width="200%" height="200%">
	<feImage
	id="feImage2"
	xlink:href="#1"
	result="result1" />
	<feComposite
	id="feComposite3633"
	in="result1"
	in2="SourceAlpha"
	operator="out" />
</filter>
<defs>
<use id="1" transform="translate(22.5,22.5) scale(1) translate(-22.5,-22.5)" style="stroke-opacity:1;stroke:url(#acyl_gradient);stroke-width:4" xlink:href="#path-main" />
</defs>
<use id="2" transform="translate(22.5,22.5) scale(1) translate(-22.5,-22.5)" style="fill:url(#acyl_gradient);filter:url(#filter1111)" xlink:href="#path-main" />
</acyl-settings>
</svg>
