<svg xmlns="http://www.w3.org/2000/svg" width="48" height="48">
<defs>
<defs
     id="defs6963">
  </defs>
  <path
     id="path-main"
     d="m 36.145833,10.123271 c 1.831402,1.39133 3.487026,2.989361 4.8125,4.8125 2.396608,2.948126 2.886704,6.811417 2.0625,10.341146 -0.02767,0.559089 -0.691662,2.492125 -0.716146,2.75 4.1e-5,0.002 -1.97e-4,0.02705 0,0.02865 10e-4,-5.82e-4 0.02744,0.001 0.02865,0 0.0014,-0.0015 -0.0016,-0.02667 0,-0.02865 0.04237,-0.05901 0.11288,-0.266946 0.286459,-0.658855 0.872859,-1.175276 1.357266,-4.039851 3.380208,-3.29427 -0.01329,-0.658349 -0.378067,-3.187316 -0.6875,-4.526042 -1.358166,-4.21872 -5.310882,-7.131257 -9.166667,-9.424479 z M 21.851562,11.98525 C 10.702643,14.420964 5.7513563,25.094093 6.6692708,27.253479 c 2.5073358,-6.384619 5.4917642,-7.658234 6.8750002,-6.875 0.05196,0.03065 0.124741,0.07815 0.171875,0.114583 0.417834,0.335064 0.670616,0.911023 0.601562,1.575521 l -0.143229,11.458333 c 0,0 -0.748785,-0.0346 -1.059896,0.08594 -0.0041,0.0017 -0.02468,-0.0018 -0.02864,0 -0.0038,0.0018 -0.02506,0.0267 -0.02865,0.02865 -0.0063,0.0041 0.0055,0.02418 0,0.02865 -0.005,0.0046 -0.02455,0.02373 -0.02865,0.02865 -0.0016,0.0027 -0.02735,0.02595 -0.02865,0.02865 -2.01e-4,0.003 -9e-5,0.02553 0,0.02865 3.86e-4,0.0032 -6.88e-4,0.02536 0,0.02865 0.002,0.0068 0.02537,0.02152 0.02865,0.02865 0.0053,0.0077 0.02196,0.04921 0.02865,0.05729 0.0037,0.0041 -0.004,0.02441 0,0.02865 0.0311,0.03038 0.121215,0.07902 0.171875,0.114584 0.122591,0.08307 0.298961,0.172592 0.544271,0.286458 0.0072,-0.0067 0.02501,0.0049 0.02864,0 0.0012,-0.002 -8.14e-4,-0.02716 0,-0.02865 0.0013,5.92e-4 0.02679,-0.0011 0.02865,0 0.0054,0.0034 -0.0099,0.02288 0,0.02865 0.120881,0.06625 0.547565,0.240242 1.919271,0.572917 2.258896,0.632557 6.960937,2.291666 6.960937,2.291666 l 5.127605,-3.236979 2.291666,2.921875 c 2.120148,-0.526342 7.457348,-4.97393 9.052084,-7.505208 -1.662048,0.897476 -5.09926,3.89729 -7.046875,2.40625 0,0 -1.267428,-7.839527 -0.286459,-13.492188 -0.150979,-2.504756 3.061217,-5.264695 3.666667,-5.757812 -0.903338,0.427456 -7.273201,3.493947 -9.367188,6.359375 -1.0273,-0.61175 -1.304154,-0.76796 -1.375,-0.802083 l 0.973959,1.260416 0.315104,12.002604 c -2.529359,0.05749 -2.475302,1.400807 -6.216146,0.08594 l -0.257812,-13.03389 c -1.738085,-1.150131 -3.65158,-4.28617 2.26302,-6.388021 z M 5.6666667,21.524312 c -0.00139,0.0015 0.00158,0.02667 0,0.02865 -0.042375,0.05901 -0.1128797,0.266945 -0.2864584,0.658854 C 4.5073486,23.387089 4.0229419,26.251665 2,25.506083 c 0.013288,0.658348 0.3780673,3.187315 0.6875,4.526042 1.3581644,4.21872 5.3108812,7.131257 9.166667,9.424479 C 10.022765,38.065274 8.3671407,36.495888 7.0416667,34.67275 4.6450559,31.724624 4.1836071,27.832688 5.0078125,24.302958 c 0.027668,-0.559089 0.6630177,-2.492125 0.6875,-2.75 -1.98e-4,-0.0016 3.591e-4,-0.02747 0,-0.02865 -0.00121,10e-4 -0.027252,-0.0015 -0.028646,0 z" />
</defs>
<acyl-settings>
<linearGradient
     id="linearGradient4321">
    <stop
       style="stop-color:#7B7B7B;stop-opacity:1.0;"
       offset="0.0"
       id="stop1" />
  </linearGradient>
<linearGradient
     inkscape:collect="always"
     xlink:href="#linearGradient4321"
     id="acyl_gradient"
     x1="50.0%"
     y1="0.0%"
     x2="50.0%"
     y2="100.0%" />
<filter id="filter1111" x="-50%" y="-50%" width="200%" height="200%">
	<feImage
	id="feImage2"
	xlink:href="#1"
	result="result1" />
	<feComposite
	id="feComposite3633"
	in="result1"
	in2="SourceAlpha"
	operator="out" />
</filter>
<defs>
<use id="1" transform="translate(22.5,22.5) scale(1) translate(-22.5,-22.5)" style="stroke-opacity:1;stroke:url(#acyl_gradient);stroke-width:4" xlink:href="#path-main" />
</defs>
<use id="2" transform="translate(22.5,22.5) scale(1) translate(-22.5,-22.5)" style="fill:url(#acyl_gradient);filter:url(#filter1111)" xlink:href="#path-main" />
</acyl-settings>
</svg>
