<svg xmlns="http://www.w3.org/2000/svg" width="48" height="48">
<defs>
  <path
     d="m 36.84375,7.78125 c 0,0 -1.510071,4.847848 -4.15625,6.15625 1.624546,2.509904 1.626243,3.804166 1.59375,3.96875 1.234663,-2.057298 2.028769,-2.270829 2.09375,-3.09375 l 2,1.8125 c -0.03249,1.769275 0,5.65625 0,5.65625 0,0 -3.537909,0.671358 -5,0.21875 0.194947,1.275527 0.426096,5.267705 -0.09375,5.84375 C 35.555616,26.327598 38.3125,26.625 38.3125,26.625 l 0,6.09375 L 36.375,34.5 c -0.06498,-0.82292 -0.859088,-1.036453 -2.09375,-3.09375 0.03251,0.164583 0.0308,1.427595 -1.59375,3.9375 2.646178,1.308399 4.15625,6.1875 4.15625,6.1875 2.297453,-4.887893 4.732287,-6.143332 9.28125,-7.65625 -0.812274,-1.851569 -3,-2.59375 -3,-2.59375 l 0,-13.25 c 0,0 2.187726,-0.77343 3,-2.625 -4.548963,-1.512917 -6.983792,-2.737107 -9.28125,-7.625 z m -34.71875,4.25 c 0,0 2.4243613,3.654014 3.21875,8.71875 C 6.4683682,27.920155 6.6825985,31.958868 6.25,35.5 l 5.53125,0 c 0.319927,-4.919223 2.09375,-9.107897 2.09375,-9.107897 0,0 2.487888,4.575579 2.625,9.107897 l 4.78125,0 c 0,0 -0.265047,-1.926465 -0.3125,-5.8125 -0.05556,-4.549823 1.292214,-12.76684 4.65625,-17.65625 l -6.78125,0 c 0,0 0.457132,2.768508 -0.46875,6.6875 -0.92588,3.918993 -0.932357,3.453044 -1.3125,4.125 -0.404089,-0.651888 -2.475299,-3.341854 -3.1875,-5.93882 -0.462938,1.90351 -2.625,5.93882 -2.625,5.93882 0,0 -1.7859065,-4.860822 -1.96875,-6.5625 -0.2031356,-1.890543 0.03125,-4.25 0.03125,-4.25 l -7.1875,0 z M 27.90625,16.5 c -1.695592,1.291224 -3.330172,2.645195 -5.0625,3.90625 l 0,10.5625 c 1.619126,1.25318 3.220126,2.531532 4.84375,3.78125 l 5.78125,-4.46875 -3.5625,-2.75 -2.03125,1.5625 0,-7.0625 c 0.550317,0.585392 1.365485,0.960972 2.21875,1.21875 1.123609,-0.80671 2.153464,-1.702607 3.25,-2.53125 C 31.530142,19.313799 29.714442,17.909141 27.90625,16.5 z"
     id="path-main"/>
</defs>
<acyl-settings>
<linearGradient
     id="linearGradient4321">
    <stop
       style="stop-color:#7B7B7B;stop-opacity:1.0;"
       offset="0.0"
       id="stop1" />
  </linearGradient>
<linearGradient
     inkscape:collect="always"
     xlink:href="#linearGradient4321"
     id="acyl_gradient"
     x1="50.0%"
     y1="0.0%"
     x2="50.0%"
     y2="100.0%" />
<filter id="filter1111" x="-50%" y="-50%" width="200%" height="200%">
	<feImage
	id="feImage2"
	xlink:href="#1"
	result="result1" />
	<feComposite
	id="feComposite3633"
	in="result1"
	in2="SourceAlpha"
	operator="out" />
</filter>
<defs>
<use id="1" transform="translate(22.5,22.5) scale(1) translate(-22.5,-22.5)" style="stroke-opacity:1;stroke:url(#acyl_gradient);stroke-width:4" xlink:href="#path-main" />
</defs>
<use id="2" transform="translate(22.5,22.5) scale(1) translate(-22.5,-22.5)" style="fill:url(#acyl_gradient);filter:url(#filter1111)" xlink:href="#path-main" />
</acyl-settings>
</svg>
