<svg xmlns="http://www.w3.org/2000/svg" width="48" height="48">
<defs>
<defs
     id="defs1874">
  </defs>
  <path
     d="M 24,2 C 11.849736,2 2,11.866712 2,24.014388 2,36.162065 11.849736,46.000001 24,46 36.150264,46 46,36.162065 46,24.014388 46,11.866712 36.150264,2 24,2 z m -10.742187,9.52518 c 0.04761,-0.005 0.09562,-0.005 0.143229,0 l 7.333333,0 c 0.182692,-0.0012 0.357795,0.07166 0.486979,0.201439 0.129185,0.129776 0.201688,0.30568 0.200521,0.489208 l 0,2.992806 16.356771,0 c 0.369465,0.0132 0.661441,0.319265 0.658854,0.690648 l 0,18.158273 c 0.0026,0.371382 -0.289389,0.677447 -0.658854,0.690647 l -26.783854,0 c -0.182692,0.0012 -0.357795,-0.07166 -0.486979,-0.201438 -0.129185,-0.129777 -0.201688,-0.305681 -0.200521,-0.489209 l 0,-18.158273 c -0.0047,-0.350853 0.254772,-0.648773 0.601562,-0.690648 0.02862,-0.0018 0.05732,-0.0018 0.08594,0 l 1.718751,0 0,-2.992806 c -0.009,-0.332241 0.220305,-0.623202 0.544271,-0.690647 z m 0.830729,1.381295 0,3.683453 5.958333,0 0,-3.683453 -5.958333,0 z m -2.40625,3.683453 0,16.776978 25.408854,0 0,-16.776978 -15.669271,0 0,0.690648 c 0.0012,0.183528 -0.07134,0.359433 -0.200521,0.489208 -0.129185,0.129777 -0.304287,0.202611 -0.486979,0.201439 l -7.333333,0 c -0.182692,0.0012 -0.357795,-0.07166 -0.486979,-0.201439 -0.129185,-0.129776 -0.201688,-0.30568 -0.200521,-0.489208 l 0,-0.690648 -1.03125,0 z m 12.661458,2.676259 c 3.279356,-10e-7 6.04427,2.536403 6.044271,5.697842 1e-6,3.161437 -2.764915,5.697842 -6.044271,5.697842 -3.279355,0 -6.015624,-2.536406 -6.015625,-5.697842 -1e-6,-3.161438 2.73627,-5.697841 6.015625,-5.697842 z m 0,1.381295 c -2.593061,0 -4.669272,1.9549 -4.669271,4.316547 0,2.361645 2.07621,4.316548 4.669271,4.316547 2.593062,0 4.669271,-1.954903 4.669271,-4.316547 0,-2.361646 -2.076209,-4.316548 -4.669271,-4.316547 z"
     id="path-main"
      />
</defs>
<acyl-settings>
<linearGradient
     id="linearGradient4321">
    <stop
       style="stop-color:#7B7B7B;stop-opacity:1.0;"
       offset="0.0"
       id="stop1" />
  </linearGradient>
<linearGradient
     inkscape:collect="always"
     xlink:href="#linearGradient4321"
     id="acyl_gradient"
     x1="50.0%"
     y1="0.0%"
     x2="50.0%"
     y2="100.0%" />
<filter id="filter1111" x="-50%" y="-50%" width="200%" height="200%">
	<feImage
	id="feImage2"
	xlink:href="#1"
	result="result1" />
	<feComposite
	id="feComposite3633"
	in="result1"
	in2="SourceAlpha"
	operator="out" />
</filter>
<defs>
<use id="1" transform="translate(22.5,22.5) scale(1) translate(-22.5,-22.5)" style="stroke-opacity:1;stroke:url(#acyl_gradient);stroke-width:4" xlink:href="#path-main" />
</defs>
<use id="2" transform="translate(22.5,22.5) scale(1) translate(-22.5,-22.5)" style="fill:url(#acyl_gradient);filter:url(#filter1111)" xlink:href="#path-main" />
</acyl-settings>
</svg>
