<svg xmlns="http://www.w3.org/2000/svg" width="48" height="48">
<defs>
  <defs
     id="defs4">
  </defs>
    <path
         d="M 33.751658,3.0118873 17.222342,12.554892 15.735893,9.790096 3.933486,16.598034 l 1.5161782,2.764795 -2.3783188,1.367534 1.7837391,3.091814 -1.8431971,1.040514 -0.5053927,0.29729 0.3864768,0.445935 1.7540101,1.872926 -1.8431971,1.040515 -0.5648507,0.327019 0.4459348,0.416205 12.2780704,12.218613 0.267561,0.267561 0.118916,0.178374 7.134956,-4.132329 0,3.656665 c -0.571928,0.253443 -1.049732,0.723237 -1.278346,1.308076 l -18.2238676,0 c -0.02971,-0.0014 -0.059477,-0.0014 -0.089187,0 -0.5253992,0.02463 -0.9164994,0.485381 -0.8918696,1.010785 0.02463,0.525405 0.4556574,0.916498 0.9810565,0.89187 l 18.3130547,0 C 21.68169,45.453241 22.496521,45.999999 23.4357,46 c 0.939179,10e-7 1.75401,-0.54676 2.140487,-1.337804 l 18.283326,0 c 0.343087,0.0049 0.659451,-0.179327 0.832411,-0.475664 0.172961,-0.296336 0.172961,-0.654992 0,-0.951328 -0.17296,-0.296334 -0.489324,-0.480515 -0.832411,-0.475663 l -18.194139,0 C 25.43676,42.174702 24.958956,41.704907 24.387028,41.451465 l 0,-4.726908 L 46,24.238383 33.751658,3.0118873 z m -4.667451,8.5322187 c 0.46575,-0.03333 0.926933,0.189639 1.159431,0.59458 l 3.597207,6.094442 c 0.118374,0.129815 0.214335,0.278505 0.267561,0.445935 l 3.270188,5.440404 c 0.08383,0.10233 0.13167,0.232984 0.178374,0.356748 0.0048,0.0081 0.02513,0.02154 0.02973,0.02973 0.0097,0.03278 0.02283,0.05571 0.02973,0.08919 0.02097,0.07761 -0.0053,0.157609 0,0.237831 7.59e-4,0.01047 0.02923,0.01925 0.02973,0.02973 0.0031,0.03134 -6.65e-4,0.0577 0,0.08919 -0.0017,0.0064 -0.02796,0.02333 -0.02973,0.02973 -7.63e-4,0.03385 0.0036,0.08525 0,0.118916 -0.0034,0.02986 -0.0241,0.05966 -0.02973,0.08919 -0.0032,0.01288 0.0036,0.04669 0,0.05946 -0.0099,0.02839 -0.01776,0.06161 -0.02973,0.08919 -0.04746,0.147705 -0.138819,0.267052 -0.237832,0.386477 -0.0071,0.01268 0.0072,0.04686 0,0.05946 -0.685189,1.192238 -1.779127,2.071378 -3.181001,2.64588 -1.531663,0.627688 -3.447737,1.002255 -5.886339,1.308075 -3.927666,0.49256 -5.56223,2.485697 -5.85661,2.883712 -0.0017,0.0064 0.0018,0.02333 0,0.02973 -0.160391,0.350333 -0.485198,0.603943 -0.862141,0.683766 -0.376943,0.07982 -0.751885,-0.04205 -1.040515,-0.29729 -0.0088,-0.0057 -0.02104,0.0059 -0.02973,0 -0.05209,-0.04961 -0.106133,-0.120348 -0.148644,-0.178373 -0.02696,-0.03289 -0.09554,-0.05366 -0.118916,-0.08919 l -0.02973,-0.08919 -7.075499,-11.921323 c -0.02864,-0.04302 -0.06625,-0.102335 -0.08919,-0.148645 -0.01758,-0.02777 -0.0442,-0.06008 -0.05946,-0.08919 -0.09119,-0.176809 -0.121285,-0.336196 -0.118916,-0.535122 0.0017,-0.0064 0.02796,-0.05306 0.02973,-0.05946 0.0038,-0.117128 0.02254,-0.245529 0.05946,-0.356748 0.06278,-0.194885 0.178191,-0.33506 0.327019,-0.475664 0.212673,-0.304072 0.644614,-0.901477 1.545907,-1.605365 0.296226,-0.231345 0.627913,-0.486031 1.010786,-0.713496 0.382875,-0.227464 0.808564,-0.452517 1.278346,-0.654037 0.939564,-0.40304 2.049209,-0.697836 3.359375,-0.862141 0.260106,-0.03262 0.46678,-0.08451 0.713496,-0.118916 1.985327,-0.276859 3.622908,-0.602376 4.726909,-1.040514 1.219794,-0.484094 1.827455,-1.067931 2.199945,-1.813468 0.172453,-0.433921 0.545035,-0.709892 1.010785,-0.743225 z m -0.02973,3.389104 c -0.642696,0.587305 -1.393007,1.071354 -2.289132,1.426992 -0.985806,0.391231 -2.212691,0.684921 -3.50802,0.921598 l 2.289132,3.835039 c 1.721965,-0.251508 3.197161,-0.49736 4.162058,-0.86214 0.911986,-0.344776 1.378309,-0.752295 1.75401,-1.248618 L 29.054478,14.93321 z m -8.353845,2.735067 c -1.055987,0.138484 -1.956152,0.374904 -2.675608,0.683767 -0.367296,0.157679 -0.692646,0.358125 -0.981057,0.535121 -0.288411,0.176995 -0.552116,0.362654 -0.772953,0.535122 -0.360086,0.281218 -0.560044,0.484155 -0.743225,0.683767 l 2.437777,4.1026 c 0.985672,-0.92375 2.59341,-2.027731 5.053927,-2.616151 l -2.318861,-3.924226 z m 12.069968,3.50802 c -0.623263,0.552977 -1.346626,1.015208 -2.199945,1.337805 -1.024062,0.387143 -2.279465,0.634818 -3.656665,0.86214 l 2.229674,3.745852 c 1.714568,-0.259315 3.103103,-0.536361 4.043142,-0.921598 0.895718,-0.367074 1.405343,-0.812241 1.783739,-1.337805 L 32.7706,21.176297 z m -8.443031,2.64588 c -1.469745,0.231554 -2.601418,0.674293 -3.448563,1.15943 -0.282383,0.161715 -0.528355,0.340972 -0.743224,0.505393 -0.42194,0.322869 -0.714041,0.594035 -0.921599,0.832412 l 2.318861,3.835039 c 1.015398,-0.896253 2.612302,-2.00721 5.053927,-2.586422 L 24.32757,23.822177 z M 5.3307483,24.654589 13.446761,38.627212 3.81457,29.054478 5.6280381,27.984235 6.1334309,27.686945 5.7469541,27.24101 4.0226729,25.397813 5.3307483,24.654589 z"
       id="path-main" />
</defs>
<acyl-settings>
<linearGradient
     id="linearGradient4321">
    <stop
       style="stop-color:#7B7B7B;stop-opacity:1.0;"
       offset="0.0"
       id="stop1" />
  </linearGradient>
<linearGradient
     inkscape:collect="always"
     xlink:href="#linearGradient4321"
     id="acyl_gradient"
     x1="50.0%"
     y1="0.0%"
     x2="50.0%"
     y2="100.0%" />
<filter id="filter1111" x="-50%" y="-50%" width="200%" height="200%">
	<feImage
	id="feImage2"
	xlink:href="#1"
	result="result1" />
	<feComposite
	id="feComposite3633"
	in="result1"
	in2="SourceAlpha"
	operator="out" />
</filter>
<defs>
<use id="1" transform="translate(22.5,22.5) scale(1) translate(-22.5,-22.5)" style="stroke-opacity:1;stroke:url(#acyl_gradient);stroke-width:4" xlink:href="#path-main" />
</defs>
<use id="2" transform="translate(22.5,22.5) scale(1) translate(-22.5,-22.5)" style="fill:url(#acyl_gradient);filter:url(#filter1111)" xlink:href="#path-main" />
</acyl-settings>
</svg>
